Division,WeightClassKg,Place,Name,Team,BodyweightKg,Best3SquatKg,Best3BenchKg,Best3DeadliftKg,TotalKg,Equipment,Event,Sex,BirthDate
Boys,51.71,1,Xavier Mondragon,McGregor,48.58,111.13,74.84,117.93,303.91,Unlimited,SBD,M,
Boys,51.71,2,Miguel Juarez,Rosebud-Lott,48.31,95.25,52.16,115.67,263.08,Unlimited,SBD,M,
Boys,51.71,3,Aiden Pankow,Gatesville,47.22,92.99,47.63,99.79,240.4,Unlimited,SBD,M,
Boys,51.71,4,Cristian Ontiveros,Crawford,51.57,77.11,52.16,97.52,226.8,Unlimited,SBD,M,
Boys,51.71,5,Will Sandifer,Bosqueville,44.95,88.45,,,88.45,Unlimited,S,M,
Boys,55.79,1,Jacob Havelka,McGregor,55.52,167.83,108.86,158.76,435.45,Unlimited,SBD,M,
Boys,55.79,2,Timothy Kruger,Rosebud-Lott,55.79,142.88,99.79,136.08,378.75,Unlimited,SBD,M,
Boys,55.79,3,Boo Hickok,Crawford,55.57,136.08,86.18,142.88,365.14,Unlimited,SBD,M,
Boys,55.79,4,Sergio Bucio,Gatesville,55.38,136.08,74.84,138.35,349.27,Unlimited,SBD,M,
Boys,59.87,1,Nicholas Thompson,West,59.15,167.83,133.81,213.19,514.83,Unlimited,SBD,M,
Boys,59.87,2,Caden Brister,Gatesville,58.15,176.9,92.99,197.31,467.2,Unlimited,SBD,M,
Boys,59.87,3,Kato Mattair,Rosebud-Lott,59.01,161.03,99.79,170.1,430.91,Unlimited,SBD,M,
Boys,59.87,4,Aidan Valdez,Rosebud-Lott,59.38,147.42,108.86,167.83,424.11,Unlimited,SBD,M,
Boys,59.87,5,Teague Arlitt,Axtell,59.87,142.88,81.65,156.49,381.02,Unlimited,SBD,M,
Boys,59.87,6,Ethan Rodgers,Crawford,59.42,138.35,74.84,145.15,358.34,Unlimited,SBD,M,
Boys,59.87,7,Mikey Starich,Bosqueville,59.87,102.06,65.77,129.27,297.1,Unlimited,SBD,M,
Boys,59.87,8,Quintin Hutchison,Axtell,59.65,,79.38,133.81,213.19,Unlimited,BD,M,
Boys,59.87,NS,Bruce Kent,West,,,,,,Unlimited,SBD,M,
Boys,67.13,1,Marc Valdez,McGregor,67.13,188.24,115.67,204.12,508.02,Unlimited,SBD,M,
Boys,67.13,2,Nick Munoz,West,64.14,181.44,111.13,183.7,476.27,Unlimited,SBD,M,
Boys,67.13,3,Michael Harrison,Axtell,66.63,163.29,120.2,183.7,467.2,Unlimited,SBD,M,
Boys,67.13,4,Blake Franks,McGregor,66,170.1,106.59,188.24,464.93,Unlimited,SBD,M,
Boys,67.13,5,Rudy Torres,McGregor,66.41,170.1,99.79,183.7,453.59,Unlimited,SBD,M,
Boys,67.13,6,Dutch Nobles,Bosqueville,67,127.01,61.23,145.15,333.39,Unlimited,SBD,M,
Boys,67.13,7,Gustavo Loera,Rosebud-Lott,64.41,174.63,102.06,,276.69,Unlimited,SB,M,
Boys,67.13,NS,Fabian Gutierrez,Bosqueville,,,,,,Unlimited,SBD,M,
Boys,74.84,1,Lj Hall,Gatesville,72.03,213.19,185.97,217.72,616.89,Unlimited,SBD,M,
Boys,74.84,2,Tanner McAninch,Axtell,74.84,185.97,127.01,195.04,508.02,Unlimited,SBD,M,
Boys,74.84,3,Derrick Gillham,Axtell,73.98,151.95,115.67,174.63,442.25,Unlimited,SBD,M,
Boys,74.84,4,Cameron Patterson,Bosqueville,72.98,170.1,79.38,181.44,430.91,Unlimited,SBD,M,
Boys,74.84,5,Ryker Phythian,Crawford,72.3,154.22,97.52,170.1,421.84,Unlimited,SBD,M,
Boys,74.84,6,Jesse Hernandez,Axtell,68.54,158.76,95.25,158.76,412.77,Unlimited,SBD,M,
Boys,74.84,7,Jayden Minnish,Crawford,70.4,147.42,88.45,151.95,387.82,Unlimited,SBD,M,
Boys,74.84,8,Troy Arlitt,Axtell,69.99,219.99,,,219.99,Unlimited,S,M,
Boys,74.84,9,Adrian Martinez,Bosqueville,71.4,158.76,,,158.76,Unlimited,S,M,
Boys,74.84,NS,Branson Hollingsworth,West,,,,,,Unlimited,SBD,M,
Boys,74.84,NS,Aiden Flores,Bosqueville,,,,,,Unlimited,SBD,M,
Boys,82.1,1,Bryice Polk,McGregor,81.1,213.19,161.03,195.04,569.26,Unlimited,SBD,M,
Boys,82.1,2,Dutch Nielson,Gatesville,81.87,208.65,142.88,208.65,560.19,Unlimited,SBD,M,
Boys,82.1,3,Tyler Blakemore,West,80.56,215.46,127.01,215.46,557.92,Unlimited,SBD,M,
Boys,82.1,4,Brayden Mills,Gatesville,81.47,195.04,122.47,235.87,553.38,Unlimited,SBD,M,
Boys,82.1,5,David Sims,Gatesville,81.15,206.38,136.08,201.85,544.31,Unlimited,SBD,M,
Boys,82.1,6,Alvin Clarkson-Williams,Rosebud-Lott,82.01,215.46,145.15,176.9,537.51,Unlimited,SBD,M,
Boys,82.1,7,Ethan Althoff,Crawford,79.7,181.44,115.67,183.7,480.81,Unlimited,SBD,M,
Boys,82.1,8,Edgar Ontiveros,McGregor,81.06,190.51,111.13,170.1,471.74,Unlimited,SBD,M,
Boys,82.1,9,Luke Badgett,Axtell,80.6,167.83,106.59,179.17,453.59,Unlimited,SBD,M,
Boys,82.1,10,Matthew Crosley,McGregor,77.34,163.29,111.13,174.63,449.06,Unlimited,SBD,M,
Boys,82.1,11,Logan Tays,Rosebud-Lott,76.16,174.63,106.59,163.29,444.52,Unlimited,SBD,M,
Boys,82.1,12,Cade Carroll,Crawford,77.2,167.83,102.06,158.76,428.64,Unlimited,SBD,M,
Boys,82.1,13,Devin Gripp,McGregor,78.61,176.9,86.18,165.56,428.64,Unlimited,SBD,M,
Boys,82.1,14,Javier Reballor,McGregor,78.93,151.95,90.72,151.95,394.63,Unlimited,SBD,M,
Boys,82.1,15,Austin Sanders,Bosqueville,80.15,131.54,61.23,140.61,333.39,Unlimited,SBD,M,
Boys,82.1,16,Andre Mongraz,McGregor,79.24,149.69,,149.69,299.37,Unlimited,SD,M,
Boys,82.1,17,Noah Reznicek,West,81.19,83.91,54.43,95.25,233.6,Unlimited,SBD,M,
Boys,82.1,18,Bennie Jordan,Crawford,77.2,113.4,,,113.4,Unlimited,S,M,
Boys,82.1,NS,Brody Buchanan,West,,,,,,Unlimited,SBD,M,
Boys,89.81,1,Jw Arnold,McGregor,88.72,238.14,156.49,226.8,621.42,Unlimited,SBD,M,
Boys,89.81,2,Shayne Adams,West,88,197.31,113.4,213.19,523.9,Unlimited,SBD,M,
Boys,89.81,3,Zach Ijams,West,87.68,201.85,111.13,199.58,512.56,Unlimited,SBD,M,
Boys,89.81,4,Noah Sanchez,Axtell,87.23,185.97,106.59,192.78,485.34,Unlimited,SBD,M,
Boys,89.81,5,Hayden Strahan,McGregor,87.23,185.97,111.13,181.44,478.54,Unlimited,SBD,M,
Boys,89.81,6,Caden Benton,Gatesville,86.27,163.29,120.2,183.7,467.2,Unlimited,SBD,M,
Boys,89.81,7,Noah Reyes,Axtell,85.82,174.63,104.33,181.44,460.4,Unlimited,SBD,M,
Boys,89.81,8,Jaydin Osorio,McGregor,86.68,151.95,106.59,174.63,433.18,Unlimited,SBD,M,
Boys,89.81,9,Corey Burns,Gatesville,86.68,215.46,,,215.46,Unlimited,S,M,
Boys,99.79,1,Daniel Rodriguez,Rosebud-Lott,91.99,256.28,172.37,240.4,669.05,Unlimited,SBD,M,
Boys,99.79,2,Steven Druppal,McGregor,94.71,233.6,142.88,210.92,587.4,Unlimited,SBD,M,
Boys,99.79,3,Jake Stanford,Crawford,94.76,215.46,136.08,199.58,551.11,Unlimited,SBD,M,
Boys,99.79,4,Kaden Coffman,Gatesville,97.07,204.12,131.54,176.9,512.56,Unlimited,SBD,M,
Boys,99.79,5,Jeremiah Cruz,McGregor,95.25,190.51,120.2,197.31,508.02,Unlimited,SBD,M,
Boys,99.79,6,Erik Castillo,Rosebud-Lott,94.57,192.78,106.59,183.7,483.08,Unlimited,SBD,M,
Boys,99.79,7,Brenner Breton,Axtell,98.79,165.56,127.01,172.37,464.93,Unlimited,SBD,M,
Boys,99.79,8,Brandon Klanika,Axtell,92.08,165.56,115.67,181.44,462.66,Unlimited,SBD,M,
Boys,99.79,9,Trenton Ketchum,Bosqueville,95.44,165.56,106.59,131.54,403.7,Unlimited,SBD,M,
Boys,99.79,10,Chad Kelsey,Crawford,91.99,142.88,81.65,154.22,378.75,Unlimited,SBD,M,
Boys,109.77,1,Garrett Cook,Rosebud-Lott,101.47,217.72,136.08,229.06,582.87,Unlimited,SBD,M,
Boys,109.77,2,Michael Denn,McGregor,102.83,197.31,113.4,208.65,519.36,Unlimited,SBD,M,
Boys,109.77,3,Parker Kasik,West,101.06,185.97,106.59,174.63,467.2,Unlimited,SBD,M,
Boys,109.77,4,Ty Hancock,West,108.64,172.37,99.79,165.56,437.72,Unlimited,SBD,M,
Boys,109.77,5,Mason Phythian,Crawford,105.6,154.22,102.06,170.1,426.38,Unlimited,SBD,M,
Boys,124.74,1,Brendon Tays,Rosebud-Lott,119.61,244.94,158.76,197.31,601.01,Unlimited,SBD,M,
Boys,124.74,2,Jack Cummings,Bosqueville,119.61,258.55,156.49,179.17,594.21,Unlimited,SBD,M,
Boys,139.71,1,Alex Rodriguez,Rosebud-Lott,131.27,258.55,165.56,208.65,632.76,Unlimited,SBD,M,
Boys,139.71,2,Lucas Vance,McGregor,128.32,235.87,151.95,208.65,596.47,Unlimited,SBD,M,
Boys,139.71,3,Kasen Ferguson,Bosqueville,127.69,217.72,120.2,195.04,532.97,Unlimited,SBD,M,
Boys,139.71,4,Issak Velasquez,Crawford,129.5,181.44,108.86,163.29,453.59,Unlimited,SBD,M,
Boys,139.71,5,Noah Krienke,Bosqueville,132.09,190.51,,,190.51,Unlimited,S,M,
Boys,139.71+,1,Zach Bryant,Gatesville,148.55,317.51,213.19,249.48,780.18,Unlimited,SBD,M,
