Division,WeightClassKg,Place,Name,Team,BodyweightKg,Best3SquatKg,Best3BenchKg,Best3DeadliftKg,TotalKg,Equipment,Event,Sex,BirthDate
Boys,51.71,1,Leonardo Sauceda,Edinburg Economedes,50.62,170.1,86.18,154.22,410.5,Unlimited,SBD,M,
Boys,51.71,2,Andrew Arechar,Edinburg,49.9,129.27,70.31,158.76,358.34,Unlimited,SBD,M,
Boys,55.79,1,Ethan Hernandez,Harlingen South,54.79,213.19,138.35,185.97,537.51,Unlimited,SBD,M,
Boys,55.79,2,Angel Escandon,Edinburg,53.16,147.42,92.99,161.03,401.43,Unlimited,SBD,M,
Boys,55.79,3,Gael Espino,Edinburg,55.79,145.15,79.38,161.03,385.55,Unlimited,SBD,M,
Boys,59.87,1,Jeremy Salazar,Donna North,59.69,210.92,136.08,206.38,553.38,Unlimited,SBD,M,
Boys,59.87,2,Jonathan Vasquez,Edinburg,59.87,174.63,102.06,151.95,428.64,Unlimited,SBD,M,
Boys,59.87,3,Osiel Alday,Brownsville Pace,57.7,136.08,86.18,156.49,378.75,Unlimited,SBD,M,
Boys,59.87,4,Edgar Garcia,Harlingen,59.87,142.88,83.91,145.15,371.95,Unlimited,SBD,M,
Boys,59.87,5,Giovanni Hayes,Brownsville Pace,58.51,124.74,70.31,154.22,349.27,Unlimited,SBD,M,
Boys,67.13,1,Jonathan Hernandez,Edinburg Economedes,67.13,208.65,129.27,249.48,587.4,Unlimited,SBD,M,
Boys,67.13,2,Joaquin Castaneda,Edinburg Economedes,65.5,219.99,133.81,213.19,566.99,Unlimited,SBD,M,
Boys,67.13,3,Santiago Rogel,Donna North,64.86,224.53,108.86,226.8,560.19,Unlimited,SBD,M,
Boys,67.13,4,Kevin Lopez,Donna North,66.68,199.58,106.59,195.04,501.22,Unlimited,SBD,M,
Boys,67.13,5,Eric Mata,Harlingen South,66.22,183.7,127.01,183.7,494.42,Unlimited,SBD,M,
Boys,67.13,6,Ethan Cantu,Harlingen,66.5,142.88,77.11,170.1,390.09,Unlimited,SBD,M,
Boys,67.13,7,Ezequiel Elias,Brownsville Pace,66.59,124.74,77.11,129.27,331.12,Unlimited,SBD,M,
Boys,67.13,DQ,Jaime Manriquez,Harlingen,66.5,172.37,,,,Unlimited,SBD,M,
Boys,74.84,1,Jose Salgado,Harlingen,73.66,217.72,140.61,217.72,576.06,Unlimited,SBD,M,
Boys,74.84,2,Julisses Garza,Harlingen,73.75,183.7,133.81,147.42,464.93,Unlimited,SBD,M,
Boys,74.84,DQ,Alex Martinez,Harlingen South,70.58,204.12,,,,Unlimited,SBD,M,
Boys,74.84,DQ,Jesus Cantu,Edinburg Economedes,73.57,272.16,165.56,,,Unlimited,SBD,M,
Boys,82.1,1,Jaime Trevino,Harlingen,81.1,256.28,167.83,210.92,635.03,Unlimited,SBD,M,
Boys,82.1,2,Mikey Gonzalez,Harlingen South,81.37,238.14,124.74,229.06,591.94,Unlimited,SBD,M,
Boys,82.1,3,Joel Cortez,Harlingen,81.83,210.92,142.88,210.92,564.72,Unlimited,SBD,M,
Boys,82.1,4,Adrian Salinas,Edinburg,81.28,215.46,147.42,195.04,557.92,Unlimited,SBD,M,
Boys,82.1,5,Eduardo Mijangos,Brownsville Pace,80.38,131.54,70.31,136.08,337.93,Unlimited,SBD,M,
Boys,82.1,6,Ignacio Montero,Donna North,79.74,83.91,92.99,113.4,290.3,Unlimited,SBD,M,
Boys,82.1,DQ,Julio Garcia,Brownsville Pace,76.57,,,,,Unlimited,SBD,M,
Boys,89.81,1,Adrian Lizcano,Harlingen,86.18,249.48,185.97,235.87,671.32,Unlimited,SBD,M,
Boys,89.81,2,Sterling Tomlin,Harlingen,88.9,249.48,188.24,231.33,669.05,Unlimited,SBD,M,
Boys,89.81,3,Tomas Longoria,Harlingen South,89.81,249.48,165.56,242.67,657.71,Unlimited,SBD,M,
Boys,89.81,4,Francisco Marichalar,Edinburg Economedes,87.18,249.48,163.29,215.46,628.23,Unlimited,SBD,M,
Boys,89.81,5,Marcus Garza,Harlingen South,88.54,204.12,115.67,181.44,501.22,Unlimited,SBD,M,
Boys,89.81,6,Raul Ruiz,Brownsville Pace,84.01,181.44,104.33,108.86,394.63,Unlimited,SBD,M,
Boys,99.79,1,Omar Guerrero,Donna North,99.79,299.37,215.46,249.48,764.3,Unlimited,SBD,M,
Boys,99.79,2,Gilbert Lerma,Harlingen South,98.97,299.37,197.31,265.35,762.04,Unlimited,SBD,M,
Boys,99.79,3,Anthony Gonzalez,Edinburg Economedes,96.89,294.84,183.7,249.48,728.02,Unlimited,SBD,M,
Boys,99.79,4,Ryan Ortiz,Harlingen,97.61,233.6,142.88,226.8,603.28,Unlimited,SBD,M,
Boys,99.79,5,Pablo Gonzalez,Edinburg,93.98,204.12,156.49,195.04,555.65,Unlimited,SBD,M,
Boys,109.77,1,Reno Villanueva,Harlingen South,104.42,278.96,167.83,235.87,682.66,Unlimited,SBD,M,
Boys,109.77,2,Ismael Garcia,Edinburg Economedes,102.69,249.48,172.37,226.8,648.64,Unlimited,SBD,M,
Boys,109.77,3,Diego Galvan,Edinburg Economedes,108.23,215.46,147.42,208.65,571.53,Unlimited,SBD,M,
Boys,109.77,4,Justin Torres,Edinburg,106.23,226.8,127.01,210.92,564.72,Unlimited,SBD,M,
Boys,109.77,5,Emmanuel Ramirez,Brownsville Pace,108.14,210.92,127.01,181.44,519.36,Unlimited,SBD,M,
Boys,109.77,6,Hugo Martinez,Brownsville Pace,100.61,136.08,92.99,131.54,360.61,Unlimited,SBD,M,
Boys,124.74,1,Anthony de Leon,Harlingen,119.02,294.84,219.99,238.14,752.96,Unlimited,SBD,M,
Boys,124.74,2,Ezra Echavarria,Harlingen South,114.21,294.84,183.7,233.6,712.14,Unlimited,SBD,M,
Boys,124.74,3,Ryan Luna,Harlingen South,113.4,272.16,147.42,226.8,646.37,Unlimited,SBD,M,
Boys,124.74,4,Bernie Elizondo,Edinburg,114.76,260.82,145.15,226.8,632.76,Unlimited,SBD,M,
Boys,124.74,5,Isaiah Hinojosa,Harlingen South,116.75,263.08,172.37,195.04,630.49,Unlimited,SBD,M,
Boys,124.74,6,Rupert Lopez,Edinburg,119.29,244.94,113.4,201.85,560.19,Unlimited,SBD,M,
Boys,124.74,7,Antonion Rangel,Edinburg,112.22,204.12,113.4,147.42,464.93,Unlimited,SBD,M,
Boys,124.74,8,Rey Ortega,Donna North,116.12,142.88,97.52,183.7,424.11,Unlimited,SBD,M,
Boys,139.71,1,Isaiah Loya,Donna North,134.17,349.27,199.58,242.67,791.52,Unlimited,SBD,M,
Boys,139.71,2,Anthony Johnson,Harlingen,137.44,290.3,226.8,238.14,755.23,Unlimited,SBD,M,
Boys,139.71,3,Robert Torres,Edinburg,126.46,215.46,108.86,176.9,501.22,Unlimited,SBD,M,
Boys,139.71+,1,Jovanny Lopez,Donna North,141.75,222.26,136.08,174.63,532.97,Unlimited,SBD,M,
Boys,139.71+,2,Caleb Trevino,Harlingen South,144.7,204.12,133.81,161.03,498.95,Unlimited,SBD,M,
Boys,139.71+,3,Jan Mireles,Donna North,167.83,136.08,102.06,154.22,392.36,Unlimited,SBD,M,
