Division,WeightClassKg,Place,Name,Team,BodyweightKg,Best3SquatKg,Best3BenchKg,Best3DeadliftKg,TotalKg,Equipment,Event,Sex,BirthDate
Boys,51.71,1,Zach Baggett,Orangefield,48.99,79.38,61.23,79.38,219.99,Unlimited,SBD,M,
Boys,51.71,2,Gunner Fry,Orange Little Cypress-Mauriceville,48.08,74.84,52.16,79.38,206.38,Unlimited,SBD,M,
Boys,55.79,1,Micheal Wells,West Orange-Stark,54.88,92.99,58.97,102.06,254.01,Unlimited,SBD,M,
Boys,55.79,2,Aiden Snyder,Orange Little Cypress-Mauriceville,52.16,61.23,65.77,83.91,210.92,Unlimited,SBD,M,
Boys,59.87,1,Emmanuel Zapeda,Orangefield,56.7,138.35,74.84,138.35,351.53,Unlimited,SBD,M,
Boys,59.87,2,Preston Jones,Silsbee,59.87,95.25,74.84,106.59,276.69,Unlimited,SBD,M,
Boys,67.13,1,Mark Vickery,Silsbee,66.68,208.65,120.2,192.78,521.63,Unlimited,SBD,M,
Boys,67.13,2,Major Copeland,Orangefield,64.86,190.51,120.2,174.63,485.34,Unlimited,SBD,M,
Boys,67.13,3,Colt Longron,Orangefield,66.68,179.17,108.86,165.56,453.59,Unlimited,SBD,M,
Boys,67.13,4,Russell Teal,Silsbee,66.68,156.49,99.79,174.63,430.91,Unlimited,SBD,M,
Boys,67.13,5,Blaine Leonard,Orangefield,65.32,161.03,102.06,149.69,412.77,Unlimited,SBD,M,
Boys,67.13,6,Grayson King,Silsbee,67.13,129.27,97.52,149.69,376.48,Unlimited,SBD,M,
Boys,67.13,7,Joshua Pelfrey,Orange Little Cypress-Mauriceville,67.13,115.67,97.52,120.2,333.39,Unlimited,SBD,M,
Boys,67.13,8,Trenton Thornton,West Orange-Stark,66.22,124.74,61.23,136.08,322.05,Unlimited,SBD,M,
Boys,67.13,9,Trevor Patterson,Silsbee,64.86,104.33,68.04,124.74,297.1,Unlimited,SBD,M,
Boys,67.13,10,Kayden Weathington,Silsbee,66.22,102.06,61.23,113.4,276.69,Unlimited,SBD,M,
Boys,67.13,11,Ty Barber,Orangefield,63.5,88.45,47.63,111.13,247.21,Unlimited,SBD,M,
Boys,67.13,DQ,Kenson Dubois,Orangefield,65.32,147.42,,,,Unlimited,SBD,M,
Boys,74.84,1,Daegan Vaughn,Orangefield,73.94,199.58,136.08,219.99,555.65,Unlimited,SBD,M,
Boys,74.84,2,Xavier Garcia,Orangefield,74.39,183.7,111.13,199.58,494.42,Unlimited,SBD,M,
Boys,74.84,3,Kaizyr Morgan,Silsbee,74.84,195.04,102.06,156.49,453.59,Unlimited,SBD,M,
Boys,74.84,4,Isaac Pinder,Orange Little Cypress-Mauriceville,68.95,142.88,92.99,147.42,383.29,Unlimited,SBD,M,
Boys,74.84,5,Conner Kidd,Orangefield,72.57,117.93,72.57,117.93,308.44,Unlimited,SBD,M,
Boys,74.84,6,Bryce Hooks,Orangefield,68.49,102.06,56.7,136.08,294.84,Unlimited,SBD,M,
Boys,74.84,7,Robert Folsom,Orange Little Cypress-Mauriceville,67.59,95.25,70.31,120.2,285.76,Unlimited,SBD,M,
Boys,74.84,DQ,Khelvy Jefferson,West Orange-Stark,69.85,,,,,Unlimited,SBD,M,
Boys,82.1,1,Marcus Turner,West Orange-Stark,81.65,188.24,113.4,240.4,542.04,Unlimited,SBD,M,
Boys,82.1,2,Jalen Gilmore,West Orange-Stark,77.11,183.7,97.52,195.04,476.27,Unlimited,SBD,M,
Boys,82.1,3,Victor Valencia,Silsbee,80.29,174.63,106.59,163.29,444.52,Unlimited,SBD,M,
Boys,82.1,4,Christian Shaw,Orangefield,76.2,156.49,99.79,170.1,426.38,Unlimited,SBD,M,
Boys,82.1,5,Tristan Glover,Orangefield,75.75,142.88,65.77,149.69,358.34,Unlimited,SBD,M,
Boys,82.1,6,Isaac Woods,Orange Little Cypress-Mauriceville,76.2,106.59,79.38,129.27,315.25,Unlimited,SBD,M,
Boys,82.1,7,Bryce Pyne,Silsbee,76.2,61.23,45.36,79.38,185.97,Unlimited,SBD,M,
Boys,89.81,1,William Prewitt,West Orange-Stark,88.45,179.17,102.06,208.65,489.88,Unlimited,SBD,M,
Boys,89.81,2,Diego Velasquez,Orange Little Cypress-Mauriceville,89.81,165.56,104.33,183.7,453.59,Unlimited,SBD,M,
Boys,89.81,3,Anterrion Fontenot,West Orange-Stark,85.28,138.35,102.06,161.03,401.43,Unlimited,SBD,M,
Boys,89.81,4,Brock Rush,Silsbee,85.28,138.35,86.18,145.15,369.68,Unlimited,SBD,M,
Boys,89.81,5,Anson Stark,Orange Little Cypress-Mauriceville,87.09,120.2,68.04,102.06,290.3,Unlimited,SBD,M,
Boys,89.81,DQ,Akilles Garcia,Orangefield,89.36,,,,,Unlimited,SBD,M,
Boys,89.81,DQ,Ian Grant,Silsbee,85.73,,,,,Unlimited,SBD,M,
Boys,99.79,1,Diego Garcia,Orangefield,99.79,233.6,158.76,249.48,641.83,Unlimited,SBD,M,
Boys,99.79,2,Eddie Winters,Orange Little Cypress-Mauriceville,97.52,201.85,142.88,215.46,560.19,Unlimited,SBD,M,
Boys,99.79,3,Jayden Smart,Silsbee,98.43,208.65,147.42,197.31,553.38,Unlimited,SBD,M,
Boys,99.79,4,Maddox Shields,Silsbee,96.62,179.17,111.13,179.17,469.47,Unlimited,SBD,M,
Boys,99.79,5,J'Terrion Levi,West Orange-Stark,92.99,165.56,106.59,183.7,455.86,Unlimited,SBD,M,
Boys,99.79,6,Cameron Adams,West Orange-Stark,90.72,170.1,97.52,174.63,442.25,Unlimited,SBD,M,
Boys,99.79,7,Kaden Fasulo,Silsbee,97.52,124.74,81.65,133.81,340.19,Unlimited,SBD,M,
Boys,99.79,8,Carter Horton,Silsbee,91.63,124.74,79.38,117.93,322.05,Unlimited,SBD,M,
Boys,109.77,1,Ian Loncon,Orange Little Cypress-Mauriceville,99.97,226.8,138.35,201.85,566.99,Unlimited,SBD,M,
Boys,109.77,2,Ja'Terraius Brown,West Orange-Stark,102.06,206.38,138.35,206.38,551.11,Unlimited,SBD,M,
Boys,109.77,3,Garren Crosby,Silsbee,109.77,219.99,138.35,183.7,542.04,Unlimited,SBD,M,
Boys,109.77,4,Stephen Peters,Silsbee,101.6,142.88,102.06,156.49,401.43,Unlimited,SBD,M,
Boys,109.77,5,Channing Larkin,West Orange-Stark,106.59,151.95,92.99,156.49,401.43,Unlimited,SBD,M,
Boys,109.77,6,Noah Marek,Silsbee,107.5,142.88,83.91,149.69,376.48,Unlimited,SBD,M,
Boys,124.74,1,Josh Miller,West Orange-Stark,111.13,231.33,183.7,233.6,648.64,Unlimited,SBD,M,
Boys,124.74,2,Nathan Childress,Orange Little Cypress-Mauriceville,112.49,188.24,147.42,176.9,512.56,Unlimited,SBD,M,
Boys,124.74,3,Cole Wilbur,Orangefield,112.04,197.31,115.67,183.7,496.68,Unlimited,SBD,M,
Boys,124.74,4,Eli Miller,Silsbee,112.94,183.7,117.93,192.78,494.42,Unlimited,SBD,M,
Boys,124.74,5,Carston Samford,Silsbee,113.85,176.9,131.54,170.1,478.54,Unlimited,SBD,M,
Boys,124.74,6,Zach Roberts,Silsbee,117.03,179.17,104.33,172.37,455.86,Unlimited,SBD,M,
Boys,124.74,DQ,Cayse Dougharty,Orange Little Cypress-Mauriceville,112.94,,,,,Unlimited,SBD,M,
Boys,124.74,DQ,Dontavias Stanley,West Orange-Stark,117.03,165.56,,,,Unlimited,SBD,M,
Boys,139.71,1,Carson Phelps,Orange Little Cypress-Mauriceville,134.72,265.35,174.63,219.99,659.98,Unlimited,SBD,M,
Boys,139.71,2,Jadyn Rhodes,West Orange-Stark,133.81,197.31,120.2,165.56,483.08,Unlimited,SBD,M,
Boys,139.71,3,Hunter Smith,Silsbee,127.91,170.1,102.06,156.49,428.64,Unlimited,SBD,M,
Boys,139.71+,1,Elliott Adams,West Orange-Stark,143.79,229.06,129.27,215.46,573.79,Unlimited,SBD,M,
Boys,139.71+,2,Jesse LeDoux,Orange Little Cypress-Mauriceville,140.16,192.78,142.88,170.1,505.76,Unlimited,SBD,M,
Boys,139.71+,3,Alex Hickman,West Orange-Stark,156.49,156.49,92.99,176.9,426.38,Unlimited,SBD,M,
