Division,WeightClassKg,Place,Name,Team,BodyweightKg,Best3SquatKg,Best3BenchKg,Best3DeadliftKg,TotalKg,Equipment,Event,Sex
Girls,44.23,1,Valeria Ramirez,Sonora,43.45,106.59,49.9,108.86,265.35,Single-ply,SBD,F
Girls,44.23,2,Jessica Paredes,Sonora,43.73,97.52,38.56,88.45,224.53,Single-ply,SBD,F
Girls,44.23,3,Lacee Gallegos,Big Lake Reagan County,40.1,65.77,24.95,88.45,179.17,Single-ply,SBD,F
Girls,47.85,1,Bruna Sanchez,Big Lake Reagan County,45.09,99.79,36.29,104.33,240.4,Single-ply,SBD,F
Girls,47.85,2,Mariah De La Rosa,Crane,45.45,72.57,36.29,79.38,188.24,Single-ply,SBD,F
Girls,51.94,1,Kali Mendez,Sonora,51.89,106.59,49.9,129.27,285.76,Single-ply,SBD,F
Girls,51.94,2,Abby Narvaez,Eldorado,50.17,111.13,56.7,115.67,283.5,Single-ply,SBD,F
Girls,51.94,3,Kenzie Cramer,Mertzon Irion County,50.44,97.52,54.43,102.06,254.01,Single-ply,SBD,F
Girls,51.94,4,Carissa Perez,Ozona,51.8,70.31,34.02,79.38,183.7,Single-ply,SBD,F
Girls,51.94,5,Dee Goodloe,Big Lake Reagan County,51.35,63.5,40.82,68.04,172.37,Single-ply,SBD,F
Girls,56.02,1,Annalisa Perez,Sonora,54.7,129.27,56.7,113.4,299.37,Single-ply,SBD,F
Girls,56.02,2,Mattie Williams,Big Lake Reagan County,53.89,113.4,54.43,120.2,288.03,Single-ply,SBD,F
Girls,56.02,3,Katelan House,San Angelo Lake View,54.43,113.4,47.63,113.4,274.42,Single-ply,SBD,F
Girls,56.02,4,Maritzza Villanueva,Sonora,54.98,90.72,43.09,88.45,222.26,Single-ply,SBD,F
Girls,56.02,5,Taylor Snodgrass,Mertzon Irion County,55.16,90.72,40.82,90.72,222.26,Single-ply,SBD,F
Girls,56.02,6,Julie Marshall #2,Ozona,55.61,86.18,38.56,95.25,219.99,Single-ply,SBD,F
Girls,56.02,7,Laramy Rico,Mertzon Irion County,55.34,79.38,38.56,86.18,204.12,Single-ply,SBD,F
Girls,56.02,DQ,Itsayana Presas,Iraan,55.34,,,,,Single-ply,SBD,F
Girls,56.02,DQ,Rosanna Aguilera,Big Lake Reagan County,54.34,,,,,Single-ply,SBD,F
Girls,60.1,1,Sierra Paredez,San Angelo Grape Creek,59.87,138.35,65.77,127.01,331.12,Single-ply,SBD,F
Girls,60.1,2,Reagan DeHanis,Mertzon Irion County,60.06,127.01,68.04,117.93,312.98,Single-ply,SBD,F
Girls,60.1,3,Dulce Rodriguez,Ozona,57.24,122.47,47.63,113.4,283.5,Single-ply,SBD,F
Girls,60.1,4,Hunter Hernandez #4,San Angelo Lake View,57.24,113.4,52.16,111.13,276.69,Single-ply,SBD,F
Girls,60.1,5,Chely Esquivel,Big Lake Reagan County,59.78,102.06,52.16,83.91,238.14,Single-ply,SBD,F
Girls,60.1,6,Kati Creech,Big Lake Reagan County,57.33,106.59,36.29,92.99,235.87,Single-ply,SBD,F
Girls,60.1,7,Alyssa Rinehart,Eldorado,58.97,88.45,40.82,86.18,215.46,Single-ply,SBD,F
Girls,60.1,8,Alexis Torres #2,San Angelo Grape Creek,58.97,68.04,31.75,83.91,183.7,Single-ply,SBD,F
Girls,67.36,1,Julia Pope,Sonora,66.04,138.35,63.5,138.35,340.19,Single-ply,SBD,F
Girls,67.36,2,Maiah Jurado,Ozona,61.42,108.86,52.16,122.47,283.5,Single-ply,SBD,F
Girls,67.36,3,McKayla Herrada,Sonora,66.68,102.06,56.7,104.33,263.08,Single-ply,SBD,F
Girls,67.36,4,Julisa Medrano,San Angelo Lake View,61.6,99.79,38.56,113.4,251.74,Single-ply,SBD,F
Girls,67.36,5,Briley Willock,Iraan,62.6,90.72,47.63,108.86,247.21,Single-ply,SBD,F
Girls,67.36,6,Cilette Sweeny,Big Lake Reagan County,63.87,81.65,38.56,124.74,244.94,Single-ply,SBD,F
Girls,67.36,7,Sierra Kimbrell,Sonora,60.96,86.18,45.36,104.33,235.87,Single-ply,SBD,F
Girls,67.36,8,Lauren Lambert,San Angelo Lake View,60.24,92.99,43.09,92.99,229.06,Single-ply,SBD,F
Girls,67.36,9,Taylea Hogan,Christoval,63.96,83.91,29.48,106.59,219.99,Single-ply,SBD,F
Girls,67.36,10,Kaci Bales,Iraan,60.24,81.65,45.36,86.18,213.19,Single-ply,SBD,F
Girls,67.36,11,Selena Torres,Crane,62.96,88.45,36.29,86.18,210.92,Single-ply,SBD,F
Girls,67.36,12,Morgan Posey,San Angelo Grape Creek,64.5,68.04,36.29,95.25,199.58,Single-ply,SBD,F
Girls,75.07,1,Julissa Esquivel,Sonora,73.84,158.76,65.77,145.15,369.68,Single-ply,SBD,F
Girls,75.07,2,Luisa Muniz,Eldorado,74.3,127.01,52.16,129.27,308.44,Single-ply,SBD,F
Girls,75.07,3,Larissa Vordick,San Angelo Grape Creek,69.94,127.01,63.5,106.59,297.1,Single-ply,SBD,F
Girls,75.07,4,Alondra Rodriguez,Ozona,70.13,122.47,45.36,113.4,281.23,Single-ply,SBD,F
Girls,75.07,5,Amber Baughman,San Angelo Grape Creek,70.58,106.59,52.16,120.2,278.96,Single-ply,SBD,F
Girls,75.07,6,Daisy Cantu,Ozona,69.67,99.79,38.56,111.13,249.48,Single-ply,SBD,F
Girls,75.07,7,Michelle Martinez,Eldorado,73.03,90.72,36.29,95.25,222.26,Single-ply,SBD,F
Girls,75.07,8,Ashley Kemp,Christoval,74.66,88.45,38.56,92.99,219.99,Single-ply,SBD,F
Girls,75.07,9,Emily Govea,San Angelo Lake View,71.12,81.65,38.56,95.25,215.46,Single-ply,SBD,F
Girls,82.33,1,Kamrie Martinez,Sonora,81.19,172.37,68.04,145.15,385.55,Single-ply,SBD,F
Girls,82.33,2,Ashley Vargas,San Angelo Lake View,81.1,136.08,61.23,136.08,333.39,Single-ply,SBD,F
Girls,82.33,3,Megan Powell #3,Eldorado,77.75,113.4,61.23,115.67,290.3,Single-ply,SBD,F
Girls,82.33,4,Alessandra Ramos,San Angelo Lake View,76.48,88.45,45.36,99.79,233.6,Single-ply,SBD,F
Girls,90.04,1,Karla Esquivel #1,Big Lake Reagan County,88.81,181.44,72.57,170.1,424.11,Single-ply,SBD,F
Girls,90.04,2,Noel Fierro,Sonora,88.18,149.69,74.84,151.95,376.48,Single-ply,SBD,F
Girls,90.04,3,Aurora Collett,Ozona,86.45,77.11,38.56,90.72,206.38,Single-ply,SBD,F
Girls,90.04,4,Susana Robles,Sonora,82.64,70.31,36.29,90.72,197.31,Single-ply,SBD,F
Girls,100.02,1,Valerie DeLeon,Big Lake Reagan County,98.88,170.1,63.5,138.35,371.95,Single-ply,SBD,F
Girls,100.02,2,Alexis Thomas,Sonora,90.63,102.06,49.9,88.45,240.4,Single-ply,SBD,F
Girls,100.02+,1,Makayla Torres,San Angelo Grape Creek,114.76,149.69,61.23,151.95,362.87,Single-ply,SBD,F
Girls,100.02+,2,Alexis Rodriguez #1,Ozona,102.78,111.13,58.97,124.74,294.84,Single-ply,SBD,F
Girls,100.02+,3,Jasmine Gutierrez,San Angelo Grape Creek,101.15,113.4,56.7,99.79,269.89,Single-ply,SBD,F
Girls,100.02+,DQ,Allesa Blue,San Angelo Lake View,108.32,156.49,61.23,,,Single-ply,SBD,F
Girls,,NS,Elizabeth Rodriguez,Ozona,,,,,,Single-ply,SBD,F
Girls,,NS,Kim Borrego,Ozona,,,,,,Single-ply,SBD,F
Girls,,NS,Veronica Perez,Christoval,,,,,,Single-ply,SBD,F
Girls,,NS,Aleecia Perez,Christoval,,,,,,Single-ply,SBD,F
Girls,,NS,Ashley Emory,Crane,,,,,,Single-ply,SBD,F
Girls,,NS,Jewel Cleere,Christoval,,,,,,Single-ply,SBD,F
