Division,WeightClassKg,Place,Name,Team,BodyweightKg,Best3SquatKg,Best3BenchKg,Best3DeadliftKg,TotalKg,Equipment,Event,Sex,BirthDate
Boys,51.71,1,Kade Duncan,Bryan,50.17,92.99,70.31,113.4,276.69,Unlimited,SBD,M,
Boys,51.71,2,Marco Castellani,College Station,39.92,63.5,29.48,81.65,174.63,Unlimited,SBD,M,
Boys,55.79,1,Tristan Espinoza,Pflugerville Hendrickson,55.79,136.08,92.99,149.69,378.75,Unlimited,SBD,M,
Boys,55.79,2,Antonio Estrada,Taylor,54.98,115.67,86.18,127.01,328.85,Unlimited,SBD,M,
Boys,55.79,3,Jackson Morey,Burton,53.98,106.59,77.11,127.01,310.71,Unlimited,SBD,M,
Boys,55.79,4,Jayden Earls,Pflugerville Connally,53.34,92.99,61.23,124.74,278.96,Unlimited,SBD,M,
Boys,55.79,5,Fidensio Salazar,Thrall,52.98,102.06,65.77,108.86,276.69,Unlimited,SBD,M,
Boys,55.79,6,Briggs Casner,Thorndale,55.79,90.72,56.7,68.04,215.46,Unlimited,SBD,M,
Boys,55.79,DQ,Hunter Duffy,Burton,55.79,,,,,Unlimited,SBD,M,
Boys,55.79,DQ,Travis Steubing,Smithville,52.25,,,,,Unlimited,SBD,M,
Boys,59.87,1,Mark Odom,Burton,59.87,165.56,92.99,172.37,430.91,Unlimited,SBD,M,
Boys,59.87,2,Ayden Kamenicky,Pflugerville Hendrickson,59.87,151.95,104.33,170.1,426.38,Unlimited,SBD,M,
Boys,59.87,3,James Lee,Pflugerville Hendrickson,59.51,149.69,104.33,165.56,419.57,Unlimited,SBD,M,
Boys,59.87,4,Gilberto Jaimes,Smithville,58.88,136.08,83.91,165.56,385.55,Unlimited,SBD,M,
Boys,59.87,5,Miguel Nino,Taylor,59.78,142.88,72.57,161.03,376.48,Unlimited,SBD,M,
Boys,59.87,6,Jaydan Alvizo,Elgin,59.51,151.95,65.77,138.35,356.07,Unlimited,SBD,M,
Boys,59.87,7,James Clifford,College Station,58.24,124.74,70.31,151.95,347,Unlimited,SBD,M,
Boys,59.87,8,Chris Gonzalez,Thrall,56.61,127.01,65.77,136.08,328.85,Unlimited,SBD,M,
Boys,59.87,9,Cooper Peacock,Smithville,58.69,115.67,70.31,120.2,306.17,Unlimited,SBD,M,
Boys,59.87,10,Andrew Cortez,Taylor,57.7,108.86,63.5,120.2,292.57,Unlimited,SBD,M,
Boys,59.87,DQ,Jaxton Paro,Thrall,59.87,,,,,Unlimited,SBD,M,
Boys,59.87,DQ,Miguel Escalante,Pflugerville Hendrickson,59.06,172.37,,,,Unlimited,SBD,M,
Boys,67.13,1,John Tan,College Station,66.22,226.8,127.01,204.12,557.92,Unlimited,SBD,M,
Boys,67.13,2,Locke Holland,College Station,66.32,185.97,81.65,190.51,458.13,Unlimited,SBD,M,
Boys,67.13,3,Kyle Montgomery,Giddings,66.32,179.17,115.67,161.03,455.86,Unlimited,SBD,M,
Boys,67.13,4,Christian Osorio,Smithville,65.77,176.9,90.72,183.7,451.32,Unlimited,SBD,M,
Boys,67.13,5,Reggie Ward,Pflugerville Hendrickson,63.14,170.1,106.59,156.49,433.18,Unlimited,SBD,M,
Boys,67.13,6,Ty Mathews,Thrall,65.23,156.49,102.06,158.76,417.3,Unlimited,SBD,M,
Boys,67.13,7,Mathew Chen,Bastrop Cedar Creek,64.68,147.42,95.25,158.76,401.43,Unlimited,SBD,M,
Boys,67.13,8,Trey Reyna,Giddings,65.86,147.42,97.52,142.88,387.82,Unlimited,SBD,M,
Boys,67.13,9,Anthony Alderete,Taylor,66.86,142.88,102.06,142.88,387.82,Unlimited,SBD,M,
Boys,67.13,10,Adrian Panaigun,Bastrop,66.86,142.88,90.72,151.95,385.55,Unlimited,SBD,M,
Boys,67.13,11,Elijah Arnold,Pflugerville Connally,66.04,142.88,74.84,154.22,371.95,Unlimited,SBD,M,
Boys,67.13,12,Cameron Morris,Smithville,61.14,140.61,74.84,151.95,367.41,Unlimited,SBD,M,
Boys,67.13,13,Sam Clark,Thrall,66.22,124.74,97.52,142.88,365.14,Unlimited,SBD,M,
Boys,67.13,14,Magnus Stahl,Manor New Tech,66.59,129.27,68.04,151.95,349.27,Unlimited,SBD,M,
Boys,67.13,15,David Stewart,Bastrop,66.22,111.13,83.91,147.42,342.46,Unlimited,SBD,M,
Boys,67.13,16,Tyler Salas,Elgin,62.14,111.13,90.72,136.08,337.93,Unlimited,SBD,M,
Boys,67.13,17,Sam Herrera,Thrall,66.68,115.67,79.38,124.74,319.78,Unlimited,SBD,M,
Boys,67.13,18,Cameron Ford,Thorndale,66.77,124.74,77.11,117.93,319.78,Unlimited,SBD,M,
Boys,67.13,19,Noah Cooper,Elgin,63.96,102.06,70.31,136.08,308.44,Unlimited,SBD,M,
Boys,67.13,20,Billy Plumley,Smithville,63.41,120.2,61.23,117.93,299.37,Unlimited,SBD,M,
Boys,67.13,21,Sergio Villa,Elgin,62.14,124.74,70.31,102.06,297.1,Unlimited,SBD,M,
Boys,67.13,22,Zayden Jones,Manor New Tech,62.23,92.99,56.7,138.35,288.03,Unlimited,SBD,M,
Boys,67.13,DQ,Jourdan Walker,Manor,66.22,,,,,Unlimited,SBD,M,
Boys,67.13,DQ,Jose Torres,Bastrop Cedar Creek,67.13,,,,,Unlimited,SBD,M,
Boys,67.13,DQ,Devon Utecht,Smithville,66.04,,,,,Unlimited,SBD,M,
Boys,67.13,DQ,Hayden Thigpen,Thorndale,64.23,,,,,Unlimited,SBD,M,
Boys,67.13,DQ,Michael Machala,Thrall,66.32,183.7,120.2,,,Unlimited,SBD,M,
Boys,74.84,1,Alejandro Arroyo,Elgin,72.57,229.06,149.69,206.38,585.13,Unlimited,SBD,M,
Boys,74.84,2,Jamal Abercrumbia,Pflugerville Connally,69.67,215.46,120.2,235.87,571.53,Unlimited,SBD,M,
Boys,74.84,3,Nick Villarreal,Bryan Rudder,72.76,206.38,108.86,208.65,523.9,Unlimited,SBD,M,
Boys,74.84,4,Branden Hecker,Pflugerville Hendrickson,72.3,170.1,133.81,201.85,505.76,Unlimited,SBD,M,
Boys,74.84,5,Luciano Arias,Taylor,74.39,183.7,120.2,190.51,494.42,Unlimited,SBD,M,
Boys,74.84,6,Jonah Garcia,Pflugerville Connally,73.48,174.63,142.88,170.1,487.61,Unlimited,SBD,M,
Boys,74.84,7,Paden Maass,Elgin,74.48,183.7,102.06,197.31,483.08,Unlimited,SBD,M,
Boys,74.84,8,John Dowell,Giddings,74.3,188.24,97.52,192.78,478.54,Unlimited,SBD,M,
Boys,74.84,9,Camden Snell,College Station,73.94,176.9,113.4,183.7,474,Unlimited,SBD,M,
Boys,74.84,10,Jacob Beardsley,Thorndale,73.66,163.29,111.13,179.17,453.59,Unlimited,SBD,M,
Boys,74.84,11,David Shi,College Station,73.12,172.37,90.72,167.83,430.91,Unlimited,SBD,M,
Boys,74.84,12,Luciano Legon,Thorndale,73.03,158.76,90.72,158.76,408.23,Unlimited,SBD,M,
Boys,74.84,13,Marcus Shaw,Thorndale,69.85,140.61,104.33,156.49,401.43,Unlimited,SBD,M,
Boys,74.84,14,Ky Sanford,Taylor,70.03,149.69,83.91,147.42,381.02,Unlimited,SBD,M,
Boys,74.84,15,Eric Mickens,Bryan Rudder,74.57,129.27,92.99,151.95,374.21,Unlimited,SBD,M,
Boys,74.84,16,Grady Ballard,Thorndale,69.58,136.08,90.72,142.88,369.68,Unlimited,SBD,M,
Boys,74.84,17,Kolton Lunbeck,Burton,74.3,147.42,88.45,133.81,369.68,Unlimited,SBD,M,
Boys,74.84,18,Blake Widner,Thrall,74.12,129.27,90.72,147.42,367.41,Unlimited,SBD,M,
Boys,74.84,19,Logan Heselmeyer,Thrall,73.84,129.27,95.25,140.61,365.14,Unlimited,SBD,M,
Boys,74.84,20,Hunter Hancock,Burton,74.48,124.74,79.38,158.76,362.87,Unlimited,SBD,M,
Boys,74.84,21,Ahn Nguyen,Manor New Tech,69.85,90.72,74.84,174.63,340.19,Unlimited,SBD,M,
Boys,74.84,22,Justin Parker,Manor,70.03,113.4,88.45,138.35,340.19,Unlimited,SBD,M,
Boys,74.84,23,Andrew Comly,Bryan Rudder,69.22,127.01,61.23,145.15,333.39,Unlimited,SBD,M,
Boys,74.84,24,Alexei Glover,Thrall,70.4,106.59,77.11,133.81,317.51,Unlimited,SBD,M,
Boys,74.84,25,Alejandro Clavelo,Bastrop Cedar Creek,69.04,113.4,68.04,117.93,299.37,Unlimited,SBD,M,
Boys,74.84,DQ,Mason McCoy,Burton,74.84,102.06,,,,Unlimited,SBD,M,
Boys,82.1,1,Miguel Nunez,Elgin,77.56,226.8,158.76,238.14,623.69,Unlimited,SBD,M,
Boys,82.1,2,Kaden Nguyen,Pflugerville Connally,80.74,219.99,149.69,222.26,591.94,Unlimited,SBD,M,
Boys,82.1,3,Chance Postell,Elgin,82.1,208.65,158.76,219.99,587.4,Unlimited,SBD,M,
Boys,82.1,4,Bruce Hendrick,Bryan Rudder,80.1,192.78,136.08,195.04,523.9,Unlimited,SBD,M,
Boys,82.1,5,Josh Webb,Pflugerville Connally,79.65,183.7,136.08,174.63,494.42,Unlimited,SBD,M,
Boys,82.1,6,Tanner Magnuson,Elgin,79.92,183.7,117.93,174.63,476.27,Unlimited,SBD,M,
Boys,82.1,7,Joel Jordan,Del Valle,77.2,181.44,120.2,172.37,474,Unlimited,SBD,M,
Boys,82.1,8,Nick Markle,Thorndale,82.1,183.7,95.25,195.04,474,Unlimited,SBD,M,
Boys,82.1,9,Eric Johnson,Manor,81.19,151.95,111.13,190.51,453.59,Unlimited,SBD,M,
Boys,82.1,10,Ben Myers,Thorndale,79.2,151.95,104.33,183.7,439.98,Unlimited,SBD,M,
Boys,82.1,11,Hardy Hay,Weimar,79.92,163.29,106.59,165.56,435.45,Unlimited,SBD,M,
Boys,82.1,12,Tanner Pickering,Bastrop,78.11,131.54,90.72,151.95,374.21,Unlimited,SBD,M,
Boys,82.1,13,Anthony Sosa,Bastrop Cedar Creek,81.28,136.08,83.91,145.15,365.14,Unlimited,SBD,M,
Boys,82.1,14,Cedrick Green,Manor,79.83,106.59,83.91,156.49,347,Unlimited,SBD,M,
Boys,82.1,DQ,Derion Lyles,Manor,82.1,174.63,102.06,,,Unlimited,SBD,M,
Boys,82.1,DQ,Bobby Galabeas,Smithville,79.47,,,,,Unlimited,SBD,M,
Boys,89.81,1,Melanio Perez,Elgin,86.45,288.03,174.63,265.35,728.02,Unlimited,SBD,M,
Boys,89.81,2,Trace Emola,Bryan Rudder,89.81,272.16,165.56,240.4,678.12,Unlimited,SBD,M,
Boys,89.81,3,Logan Morris,Pflugerville Hendrickson,89.81,265.35,158.76,201.85,625.96,Unlimited,SBD,M,
Boys,89.81,4,Malik Cotton,College Station,85.28,192.78,156.49,260.82,610.08,Unlimited,SBD,M,
Boys,89.81,5,Jaydus Bell,Pflugerville Connally,89.81,213.19,120.2,226.8,560.19,Unlimited,SBD,M,
Boys,89.81,6,Jackson Clowdus,Elgin,87.27,197.31,124.74,215.46,537.51,Unlimited,SBD,M,
Boys,89.81,7,Cameron Glade,Bryan,89.81,185.97,129.27,195.04,510.29,Unlimited,SBD,M,
Boys,89.81,8,Joe Soto,Smithville,89.81,183.7,127.01,195.04,505.76,Unlimited,SBD,M,
Boys,89.81,9,Rex Shoemaker,Giddings,89.81,206.38,124.74,172.37,503.49,Unlimited,SBD,M,
Boys,89.81,10,Paxson Heath,Pflugerville Hendrickson,89.81,192.78,108.86,197.31,498.95,Unlimited,SBD,M,
Boys,89.81,11,Carnell Spicer,Pflugerville Hendrickson,84.37,190.51,113.4,190.51,494.42,Unlimited,SBD,M,
Boys,89.81,12,Jon Alamilla,Weimar,86.64,190.51,104.33,188.24,483.08,Unlimited,SBD,M,
Boys,89.81,13,William Rash,Bryan Rudder,89.81,174.63,120.2,179.17,474,Unlimited,SBD,M,
Boys,89.81,14,Trent Miles,Bastrop,89.81,165.56,120.2,174.63,460.4,Unlimited,SBD,M,
Boys,89.81,15,Cesar Sandolval,Bastrop Cedar Creek,89.81,167.83,122.47,167.83,458.13,Unlimited,SBD,M,
Boys,89.81,16,Joel Diaz,Giddings,89.81,181.44,117.93,158.76,458.13,Unlimited,SBD,M,
Boys,89.81,17,Conor Burleson,Smithville,85,176.9,104.33,172.37,453.59,Unlimited,SBD,M,
Boys,89.81,18,Rodolfo Menchaca,Bryan,89.81,183.7,111.13,158.76,453.59,Unlimited,SBD,M,
Boys,89.81,19,Ryder Bass,Taylor,89.81,163.29,113.4,149.69,426.38,Unlimited,SBD,M,
Boys,89.81,20,Case Adams,Giddings,85.09,183.7,92.99,136.08,412.77,Unlimited,SBD,M,
Boys,89.81,21,Jackson Davenport,Bastrop Cedar Creek,89.81,147.42,81.65,161.03,390.09,Unlimited,SBD,M,
Boys,89.81,22,Diego Hernandez,Manor New Tech,89.81,113.4,77.11,145.15,335.66,Unlimited,SBD,M,
Boys,89.81,23,Jake Gosselink,Bastrop,89.81,90.72,65.77,129.27,285.76,Unlimited,SBD,M,
Boys,89.81,24,Alejandro Flores,Bastrop Cedar Creek,89.81,102.06,70.31,106.59,278.96,Unlimited,SBD,M,
Boys,89.81,DQ,Colbey Solis,Taylor,89.81,,,,,Unlimited,SBD,M,
Boys,89.81,DQ,Andre Solis,Taylor,89.81,,,,,Unlimited,SBD,M,
Boys,99.79,1,Joseph Incardona,Bryan,98.88,267.62,156.49,249.48,673.58,Unlimited,SBD,M,
Boys,99.79,2,Tysan Breaux,Pflugerville Hendrickson,98.79,254.01,163.29,249.48,666.78,Unlimited,SBD,M,
Boys,99.79,3,Noah Baxter,Smithville,90.08,226.8,124.74,258.55,610.08,Unlimited,SBD,M,
Boys,99.79,4,Jaydon Sawyer,Elgin,99.7,219.99,147.42,235.87,603.28,Unlimited,SBD,M,
Boys,99.79,5,Liam Ponte,College Station,95.25,231.33,142.88,226.8,601.01,Unlimited,SBD,M,
Boys,99.79,6,Chris Borja,Smithville,98.07,222.26,149.69,217.72,589.67,Unlimited,SBD,M,
Boys,99.79,7,Kenelle Hodges,Del Valle,93.8,233.6,136.08,181.44,551.11,Unlimited,SBD,M,
Boys,99.79,8,Esau Ramirez,Del Valle,97.25,210.92,131.54,208.65,551.11,Unlimited,SBD,M,
Boys,99.79,9,Brayden Harrison,Manor,91.44,188.24,124.74,215.46,528.44,Unlimited,SBD,M,
Boys,99.79,10,Nick Ramirez,Thorndale,92.35,195.04,142.88,190.51,528.44,Unlimited,SBD,M,
Boys,99.79,11,Eli Herrera,Manor New Tech,94.98,165.56,97.52,199.58,462.66,Unlimited,SBD,M,
Boys,99.79,12,Raul Hildalgo,Elgin,94.08,183.7,102.06,170.1,455.86,Unlimited,SBD,M,
Boys,99.79,13,Greyson Moehnke,Thrall,97.25,142.88,106.59,147.42,396.89,Unlimited,SBD,M,
Boys,99.79,DQ,Buck Bunjoch,Weimar,99.79,,,,,Unlimited,SBD,M,
Boys,99.79,DQ,Brandon Luckey,Weimar,99.79,,,,,Unlimited,SBD,M,
Boys,99.79,DQ,Deven Cuba,Thorndale,99.79,,,,,Unlimited,SBD,M,
Boys,99.79,DQ,Alex Johnson,Manor New Tech,97.07,197.31,88.45,,,Unlimited,SBD,M,
Boys,109.77,1,Harper Hall,College Station,104.33,272.16,158.76,226.8,657.71,Unlimited,SBD,M,
Boys,109.77,2,Hector Arradondo,Bastrop Cedar Creek,109.68,242.67,154.22,219.99,616.89,Unlimited,SBD,M,
Boys,109.77,3,Carson Hartranft,Giddings,107.86,233.6,138.35,199.58,571.53,Unlimited,SBD,M,
Boys,109.77,4,Isaac Garza,Giddings,104.87,235.87,133.81,199.58,569.26,Unlimited,SBD,M,
Boys,109.77,5,Jeffery Love,Elgin,105.23,222.26,142.88,204.12,569.26,Unlimited,SBD,M,
Boys,109.77,6,Melvin McPherson,Pflugerville Connally,108.14,215.46,124.74,181.44,521.63,Unlimited,SBD,M,
Boys,109.77,7,Takae Augustin,Del Valle,106.5,197.31,136.08,183.7,517.1,Unlimited,SBD,M,
Boys,109.77,8,Theo Saldanha,Pflugerville Connally,105.41,188.24,97.52,192.78,478.54,Unlimited,SBD,M,
Boys,109.77,9,Cornelius Urdy,Del Valle,104.42,158.76,113.4,167.83,439.98,Unlimited,SBD,M,
Boys,109.77,10,Ruben Garcia,Weimar,105.05,176.9,102.06,154.22,433.18,Unlimited,SBD,M,
Boys,109.77,DQ,Isaiah Sanchez,Taylor,109.77,,,,,Unlimited,SBD,M,
Boys,109.77,DQ,Cody Trammel,Bastrop Cedar Creek,109.77,,,,,Unlimited,SBD,M,
Boys,109.77,DQ,Coltin Pruitt,Bryan,109.77,,,,,Unlimited,SBD,M,
Boys,109.77,DQ,Keagan Fenner,Burton,109.77,,,,,Unlimited,SBD,M,
Boys,109.77,DQ,Tyler Benavidez,Bryan Rudder,108.95,190.51,,,,Unlimited,SBD,M,
Boys,109.77,DQ,Samuel Davis,Thrall,105.05,,,,,Unlimited,SBD,M,
Boys,109.77,DQ,Gavin Tonche,Manor,101.7,,,,,Unlimited,SBD,M,
Boys,124.74,1,Hunter McGary,Bryan Rudder,116.39,288.03,156.49,226.8,671.32,Unlimited,SBD,M,
Boys,124.74,2,Zion Burnett,Pflugerville Connally,124.74,226.8,165.56,192.78,585.13,Unlimited,SBD,M,
Boys,124.74,3,Jeremiah Robinson,Del Valle,115.39,204.12,142.88,204.12,551.11,Unlimited,SBD,M,
Boys,124.74,4,James Gonzalez,Pflugerville Hendrickson,110.5,222.26,111.13,210.92,544.31,Unlimited,SBD,M,
Boys,124.74,5,Tyler Davis,Giddings,110.68,217.72,129.27,179.17,526.17,Unlimited,SBD,M,
Boys,124.74,6,Mason Thomas,Bastrop Cedar Creek,111.13,195.04,113.4,208.65,517.1,Unlimited,SBD,M,
Boys,124.74,7,Daalon Mattocks,Manor,116.39,204.12,104.33,195.04,503.49,Unlimited,SBD,M,
Boys,124.74,8,Angelo Lopez,Del Valle,115.12,174.63,104.33,174.63,453.59,Unlimited,SBD,M,
Boys,124.74,9,Diego Aviles,Manor,112.85,138.35,111.13,181.44,430.91,Unlimited,SBD,M,
Boys,139.71,1,Kevin Ramirez,Giddings,134.99,285.76,222.26,229.06,737.09,Unlimited,SBD,M,
Boys,139.71,2,Ernest Alderete,Taylor,128.28,285.76,213.19,226.8,725.75,Unlimited,SBD,M,
Boys,139.71,3,Kaleb Yount,Thorndale,125.74,272.16,190.51,258.55,721.21,Unlimited,SBD,M,
Boys,139.71,4,Ethan Ray,Giddings,133.45,256.28,165.56,249.48,671.32,Unlimited,SBD,M,
Boys,139.71,5,Peyton Dees,Giddings,133.45,242.67,151.95,208.65,603.28,Unlimited,SBD,M,
Boys,139.71,6,Gabriel García,Bryan Rudder,126.73,226.8,129.27,183.7,539.77,Unlimited,SBD,M,
Boys,139.71,7,Patrick Tavary,Burton,129.55,192.78,97.52,213.19,503.49,Unlimited,SBD,M,
Boys,139.71,8,Jaxon Taylor,Bastrop,134.26,192.78,124.74,183.7,501.22,Unlimited,SBD,M,
Boys,139.71,9,Joseph Mares,Del Valle,135.35,179.17,111.13,206.38,496.68,Unlimited,SBD,M,
Boys,139.71,10,Sebastian Vaquera,Pflugerville Connally,131.9,204.12,120.2,170.1,494.42,Unlimited,SBD,M,
Boys,139.71,11,Omar Bustamante,Bryan Rudder,130.36,181.44,106.59,163.29,451.32,Unlimited,SBD,M,
Boys,139.71,12,Felipe Constante,Bastrop Cedar Creek,129.27,156.49,97.52,163.29,417.3,Unlimited,SBD,M,
Boys,139.71,DQ,Aiden Newbill,Pflugerville Connally,126.46,217.72,158.76,,,Unlimited,SBD,M,
Boys,139.71+,1,Jay Simmons,Pflugerville Hendrickson,150.41,258.55,188.24,219.99,666.78,Unlimited,SBD,M,
Boys,139.71+,2,Robert Phifer,Del Valle,150.77,226.8,120.2,272.16,619.15,Unlimited,SBD,M,
Boys,139.71+,3,Lance Jaramillo,Bastrop Cedar Creek,147.87,185.97,104.33,188.24,478.54,Unlimited,SBD,M,
Boys,139.71+,4,Alex Guerrero,Del Valle,145.06,181.44,117.93,163.29,462.66,Unlimited,SBD,M,
Boys,139.71+,5,Joaquin Parra,Bryan Rudder,144.61,145.15,90.72,145.15,381.02,Unlimited,SBD,M,
