Division,WeightClassKg,Place,Name,Team,BodyweightKg,Best3SquatKg,Best3BenchKg,Best3DeadliftKg,TotalKg,Equipment,Event,Sex,BirthDate
Boys,51.71,1,Preston Jhagroo,Andrews,45.63,136.08,65.77,122.47,324.32,Unlimited,SBD,M,
Boys,51.71,2,Aaron Jimenez,Andrews,46.18,90.72,56.7,115.67,263.08,Unlimited,SBD,M,
Boys,55.79,1,William Cralle,Midland Greenwood,55.43,117.93,79.38,129.27,326.59,Unlimited,SBD,M,
Boys,55.79,DQ,Jonas Milan,Andrews,53.98,127.01,65.77,,,Unlimited,SBD,M,
Boys,55.79,DQ,Brayden Bryant,Big Spring,54.25,,,,,Unlimited,SBD,M,
Boys,67.13,1,Joey Vazquez,Midland Greenwood,63.32,165.56,95.25,158.76,419.57,Unlimited,SBD,M,
Boys,67.13,2,Andrew Ramos,Andrews,66.22,149.69,79.38,161.03,390.09,Unlimited,SBD,M,
Boys,67.13,3,Collin Cornish,Big Spring,62.69,115.67,70.31,138.35,324.32,Unlimited,SBD,M,
Boys,67.13,DQ,Damoryan Warren,Big Spring,66.95,136.08,102.06,,,Unlimited,SBD,M,
Boys,74.84,1,Abdiel Moreno,Andrews,70.31,183.7,92.99,181.44,458.13,Unlimited,SBD,M,
Boys,74.84,2,Ivan Garcia,Andrews,68.13,147.42,102.06,172.37,421.84,Unlimited,SBD,M,
Boys,74.84,3,Brody Lara,Andrews,74.48,167.83,97.52,154.22,419.57,Unlimited,SBD,M,
Boys,74.84,4,Jorge Nieves Arroyo,Big Spring,70.4,151.95,81.65,156.49,390.09,Unlimited,SBD,M,
Boys,74.84,5,Ramiro Arroyo,Big Spring,73.84,129.27,83.91,161.03,374.21,Unlimited,SBD,M,
Boys,74.84,6,Carlos Vega,Big Spring,74.75,113.4,77.11,136.08,326.59,Unlimited,SBD,M,
Boys,74.84,7,Josh Britton,Midland Greenwood,71.3,129.27,68.04,124.74,322.05,Unlimited,SBD,M,
Boys,74.84,8,Payden Noble,Big Spring,67.4,106.59,56.7,120.2,283.5,Unlimited,SBD,M,
Boys,74.84,DQ,Ethan Garcia,Big Spring,74.57,133.81,74.84,,,Unlimited,SBD,M,
Boys,82.1,1,Nacho Caldera,Andrews,76.2,195.04,120.2,183.7,498.95,Unlimited,SBD,M,
Boys,82.1,2,Jaxon Brooks,Midland Greenwood,75.93,149.69,90.72,138.35,378.75,Unlimited,SBD,M,
Boys,82.1,3,Brodee McMellon,Midland Greenwood,80.47,136.08,88.45,154.22,378.75,Unlimited,SBD,M,
Boys,82.1,4,David Franks,Big Spring,78.02,115.67,81.65,149.69,347,Unlimited,SBD,M,
Boys,82.1,5,Ayce Pesina,Big Spring,77.11,127.01,79.38,136.08,342.46,Unlimited,SBD,M,
Boys,89.81,1,Chris Gray,Water Valley,88.81,188.24,88.45,181.44,458.13,Unlimited,SBD,M,
Boys,89.81,2,Diego Flores,Big Spring,89.18,113.4,72.57,142.88,328.85,Unlimited,SBD,M,
Boys,89.81,3,Landon New,Big Spring,89.09,111.13,74.84,136.08,322.05,Unlimited,SBD,M,
Boys,89.81,4,Logan Norwood,Big Spring,83.91,106.59,40.82,111.13,258.55,Unlimited,SBD,M,
Boys,99.79,1,Leandro Ramirez,Midland Greenwood,93.89,156.49,102.06,183.7,442.25,Unlimited,SBD,M,
Boys,99.79,2,Jake Tedder,Midland Greenwood,96.16,124.74,83.91,145.15,353.8,Unlimited,SBD,M,
Boys,109.77,1,Evan Bustamante,Andrews,105.32,235.87,158.76,242.67,637.3,Unlimited,SBD,M,
Boys,109.77,2,Davian Gonzales,Andrews,105.05,185.97,115.67,192.78,494.42,Unlimited,SBD,M,
Boys,109.77,3,Colton Manley,Midland Greenwood,101.24,151.95,90.72,129.27,371.95,Unlimited,SBD,M,
Boys,124.74,1,Jordan Roberts,Big Spring,115.58,226.8,124.74,201.85,553.38,Unlimited,SBD,M,
Boys,139.71,1,Rylee Muncy,Water Valley,127.82,204.12,129.27,174.63,508.02,Unlimited,SBD,M,
Boys,139.71,2,Rhilley Allen,Midland Greenwood,135.44,204.12,124.74,170.1,498.95,Unlimited,SBD,M,
Boys,139.71+,1,Kaden Camacho,Midland Greenwood,140.7,170.1,90.72,142.88,403.7,Unlimited,SBD,M,
Boys,,NS,Jt Nichols,Midland Greenwood,,,,,,Unlimited,SBD,M,
