Place,Name,State,Country,Sex,Age,Equipment,Division,BodyweightKg,WeightClassKg,Squat1Kg,Squat2Kg,Squat3Kg,Best3SquatKg,Bench1Kg,Bench2Kg,Bench3Kg,Best3BenchKg,Deadlift1Kg,Deadlift2Kg,Deadlift3Kg,Best3DeadliftKg,TotalKg,Event,BirthDate
NS,Lauren Skeates,,,F,,Raw,FR-Jr,,,,,,,,,,,,,,,,SBD,
NS,Llio Godfrey-Flower,,,F,,Raw,FR-Jr,,,,,,,,,,,,,,,,SBD,
NS,Rebekah Aitken,,,F,,Raw,FR-Jr,,,,,,,,,,,,,,,,SBD,
1,Gwen Marsden,SM,England,F,,Raw,FR-Jr,42.5,43,108,113.5,-118,113.5,71.5,74,-75,74,135,142.5,146.5,146.5,334,SBD,
1,Lauren Preston,,Scotland,F,,Raw,FR-Jr,46.4,47,107.5,-115,115,115,60,65,-70,65,130,-137.5,-137.5,130,310,SBD,
1,Bridget Parris,WM,England,F,,Raw,FR-Jr,51.8,52,127.5,135.5,138,138,57.5,60,62.5,62.5,-152.5,152.5,-170.5,152.5,353,SBD,
2,Long Kiu Tse,SM,England,F,,Raw,FR-Jr,51.2,52,95,102.5,-110,102.5,62.5,67.5,70,70,140,147.5,155,155,327.5,SBD,
3,Mia Wannop,NM,England,F,,Raw,FR-Jr,51.4,52,115,120,125,125,52.5,-55,-55,52.5,125,132.5,140,140,317.5,SBD,
4,Megan Redshaw,EM,England,F,,Raw,FR-Jr,51.8,52,92.5,97.5,-100,97.5,50,52.5,-55,52.5,117.5,125,130,130,280,SBD,
5,Niamh Mulley,NM,England,F,,Raw,FR-Jr,51.9,52,87.5,95,-97.5,95,50,55,-57.5,55,122.5,-130,-130,122.5,272.5,SBD,
1,Amelia Fox #1,WM,England,F,21,Raw,FR-Jr,56.3,57,127.5,137.5,-145,137.5,67.5,72.5,75,75,165,180,190,190,402.5,SBD,
2,Ellie Weinstein,WM,England,F,20,Raw,FR-Jr,57,57,135,145,152.5,152.5,67.5,72.5,75,75,160,170,175,175,402.5,SBD,
3,Amy Middlemas,EM,England,F,21,Raw,FR-Jr,57,57,117.5,122.5,125,125,67.5,70,-72.5,70,155,162.5,-170,162.5,357.5,SBD,
4,Caitlin Parrott,NM,England,F,22,Raw,FR-Jr,56.4,57,115,122.5,125,125,72.5,-77.5,77.5,77.5,142.5,152.5,-160,152.5,355,SBD,
5,Aleena Akhtar,SW,England,F,,Raw,FR-Jr,56.9,57,-110,115,130,130,55,60,62.5,62.5,135,150,160,160,352.5,SBD,
6,Nicole Davies #1,,Wales,F,22,Raw,FR-Jr,55,57,115,122.5,127.5,127.5,55,60,62.5,62.5,135,140,150,150,340,SBD,
7,Alice Lane,YNE,England,F,22,Raw,FR-Jr,56,57,100,105,110,110,52.5,55,-57.5,55,142.5,155,165,165,330,SBD,
8,Jessica Davies,NM,England,F,21,Raw,FR-Jr,56.6,57,105,110,-112.5,110,62.5,65,-67.5,65,-140,145,150,150,325,SBD,
9,Catherine Cooper,NW,England,F,22,Raw,FR-Jr,56.3,57,105,110,115,115,62.5,67.5,-70,67.5,125,135,-145,135,317.5,SBD,
10,Molly Walker,EM,England,F,20,Raw,FR-Jr,54.5,57,102.5,112.5,115,115,-55,57.5,-62.5,57.5,130,142.5,-147.5,142.5,315,SBD,
11,Chloe Thomas #2,SW,England,F,21,Raw,FR-Jr,56.3,57,95,105,110,110,55,-60,60,60,130,140,145,145,315,SBD,
12,Hannah Bushell,WM,England,F,,Raw,FR-Jr,57,57,102.5,107.5,112.5,112.5,60,62.5,65,65,127.5,135,-142.5,135,312.5,SBD,
13,Alanna Flewitt,EM,England,F,19,Raw,FR-Jr,55.5,57,100,107.5,112.5,112.5,52.5,55,57.5,57.5,115,125,-130,125,295,SBD,
14,Lucy Townsend,SE,England,F,,Raw,FR-Jr,55.7,57,100,107.5,110,110,55,-60,60,60,120,-135,-135,120,290,SBD,
15,Alex Bayne,SE,England,F,20,Raw,FR-Jr,55.7,57,-102.5,102.5,-107.5,102.5,55,57.5,-60,57.5,117.5,122.5,127.5,127.5,287.5,SBD,
16,Emily May,,Wales,F,23,Raw,FR-Jr,55.9,57,107.5,115,117.5,117.5,37.5,42.5,45,45,115,122.5,-125,122.5,285,SBD,
17,Heather Beaumont,SE,England,F,22,Raw,FR-Jr,56.7,57,95,102.5,107.5,107.5,47.5,52.5,55,55,110,-117.5,120,120,282.5,SBD,
18,Alisha Ali,SE,England,F,22,Raw,FR-Jr,54.5,57,-95,95,-105,95,50,52.5,55,55,120,127.5,-135,127.5,277.5,SBD,
1,Lucy Robinson #1,YNE,England,F,,Raw,FR-Jr,62.2,63,170,-180,180,180,75,80,82.5,82.5,185,197.5,205,205,467.5,SBD,
2,Skye Moore,NM,England,F,,Raw,FR-Jr,62.7,63,145,152.5,-160,152.5,87.5,90,-92.5,90,175,185,192.5,192.5,435,SBD,
3,Victoria Hart,EM,England,F,20,Raw,FR-Jr,62.3,63,150,160,-165,160,90,92.5,94,94,145,-152.5,157.5,157.5,411.5,SBD,
4,Miranda Stitt,,Scotland,F,,Raw,FR-Jr,61.8,63,135,142.5,145,145,87.5,93.5,95.5,95.5,150,160,-165,160,400.5,SBD,
5,Anne Burns,YNE,England,F,,Raw,FR-Jr,62,63,137.5,145,150,150,-85,85,-90,85,145,152.5,-160,152.5,387.5,SBD,
6,Jessica Lally,SE,England,F,,Raw,FR-Jr,61.6,63,137.5,145,147.5,147.5,67.5,72.5,-75,72.5,152.5,-162.5,162.5,162.5,382.5,SBD,
7,Olivia Hardingham,SW,England,F,,Raw,FR-Jr,62.9,63,142.5,150,-155,150,65,67.5,70,70,145,155,-160,155,375,SBD,
8,Ellie Pacey,SE,England,F,22,Raw,FR-Jr,62.4,63,132.5,140,145,145,70,75,80,80,130,140,-142.5,140,365,SBD,
9,Amelia Fox #2,YNE,England,F,21,Raw,FR-Jr,58.6,63,120,125,-130,125,60,65,67.5,67.5,150,160,170,170,362.5,SBD,
10,Effie Menzies,NM,England,F,22,Raw,FR-Jr,62.7,63,125,132.5,140,140,67.5,72.5,77.5,77.5,135,145,-155,145,362.5,SBD,
11,Diana Huynh,GL,England,F,23,Raw,FR-Jr,61,63,127.5,135,140,140,60,65,67.5,67.5,127.5,137.5,-142.5,137.5,345,SBD,
12,Courtney Brown #2,,Scotland,F,21,Raw,FR-Jr,61.7,63,107.5,115,117.5,117.5,70,75,-77.5,75,140,152.5,-160,152.5,345,SBD,
13,Abigail Dorgan,SE,England,F,22,Raw,FR-Jr,63,63,-115,-125,125,125,72.5,-77.5,-77.5,72.5,130,140,145,145,342.5,SBD,
14,Lillian Sullivan,SW,England,F,18,Raw,FR-Jr,61.4,63,107.5,110,117.5,117.5,-67.5,-67.5,67.5,67.5,147.5,152.5,155,155,340,SBD,
15,Sophie Fowler,NM,England,F,21,Raw,FR-Jr,60.6,63,120,125,-130,125,55,57.5,60,60,142.5,152.5,-160,152.5,337.5,SBD,
16,Jodie Partington,GL,England,F,21,Raw,FR-Jr,61.9,63,120,127.5,-132.5,127.5,62.5,67.5,-72.5,67.5,130,140,142.5,142.5,337.5,SBD,
17,Niamh Mulligan,EM,England,F,22,Raw,FR-Jr,62.5,63,110,117.5,-125,117.5,67.5,70,72.5,72.5,130,142.5,147.5,147.5,337.5,SBD,
18,Runa Kolaczynska,SW,England,F,21,Raw,FR-Jr,61.8,63,112.5,120,-125,120,62.5,67.5,70,70,127.5,137.5,145,145,335,SBD,
19,Amelia Nagar,YNE,England,F,20,Raw,FR-Jr,62,63,110,112.5,117.5,117.5,55,57.5,60,60,140,155,157.5,157.5,335,SBD,
1,Esther Mullings,GL,England,F,21,Raw,FR-Jr,68.5,69,162.5,172.5,176.5,176.5,87.5,92.5,95,95,182.5,192.5,-201.5,192.5,464,SBD,
2,Emilia Martin,SE,England,F,19,Raw,FR-Jr,68.9,69,145,152.5,157.5,157.5,80,85,-87.5,85,187.5,200,202,202,444.5,SBD,
3,Hannah Davis,WM,England,F,20,Raw,FR-Jr,67.9,69,165,170,176,176,72.5,77.5,-85,77.5,177.5,187.5,-197.5,187.5,441,SBD,
4,Yasmin Burt,NM,England,F,20,Raw,FR-Jr,68.7,69,137.5,145,150,150,92.5,97.5,102.5,102.5,160,170,180,180,432.5,SBD,
5,Lois Anderton,SE,England,F,19,Raw,FR-Jr,67.6,69,145,152.5,-157.5,152.5,75,80,82.5,82.5,162.5,172.5,177.5,177.5,412.5,SBD,
6,Emily Byrne,WM,England,F,19,Raw,FR-Jr,68.6,69,147.5,155,-160,155,87.5,-92.5,92.5,92.5,147.5,157.5,162.5,162.5,410,SBD,
7,Isabel Dowling,EM,England,F,23,Raw,FR-Jr,68.6,69,140,147.5,152.5,152.5,87.5,-92.5,92.5,92.5,150,162.5,-167.5,162.5,407.5,SBD,
8,Cairo Johnson,EM,England,F,20,Raw,FR-Jr,68.9,69,142.5,152.5,-157.5,152.5,67.5,75,-77.5,75,162.5,-172.5,175,175,402.5,SBD,
9,Lucy Cork,EM,England,F,22,Raw,FR-Jr,65.4,69,135,142.5,147.5,147.5,72.5,77.5,82.5,82.5,142.5,152.5,157.5,157.5,387.5,SBD,
10,Anna Foster,,Scotland,F,21,Raw,FR-Jr,67.2,69,122.5,130,135,135,72.5,77.5,80,80,152.5,162.5,170,170,385,SBD,
11,Ella Parsons,,Scotland,F,20,Raw,FR-Jr,67.7,69,142.5,150,-155,150,75,82.5,85,85,135,145,150,150,385,SBD,
12,Phoebe Pothecary,SW,England,F,20,Raw,FR-Jr,68.6,69,130,137.5,140,140,72.5,77.5,82.5,82.5,-142.5,152.5,157.5,157.5,380,SBD,
13,Charley Rawlings,SW,England,F,19,Raw,FR-Jr,67.6,69,130,140,145,145,65,70,75,75,140,150,155,155,375,SBD,
14,Gemma Smith,NM,England,F,22,Raw,FR-Jr,68.6,69,127.5,132.5,-135,132.5,72.5,77.5,80,80,145,152.5,-160,152.5,365,SBD,
15,Molly Jeneway,,Wales,F,23,Raw,FR-Jr,67.7,69,120,127.5,135,135,57.5,62.5,-67.5,62.5,140,150,160,160,357.5,SBD,
16,Charlotte Higham,SW,England,F,20,Raw,FR-Jr,68.4,69,112.5,120,-122.5,120,60,65,67.5,67.5,147.5,160,170,170,357.5,SBD,
17,Abbie Holroyd,YNE,England,F,20,Raw,FR-Jr,68.8,69,125,-132.5,132.5,132.5,75,-80,80,80,135,145,-147.5,145,357.5,SBD,
18,Zara Guppy,EM,England,F,23,Raw,FR-Jr,68.2,69,105,115,120,120,70,75,-77.5,75,145,160,-170,160,355,SBD,
19,Lauren Keating,SE,England,F,22,Raw,FR-Jr,66.7,69,115,122.5,127.5,127.5,70,72.5,75,75,137.5,150,-157.5,150,352.5,SBD,
20,Lizzy Olowe,,Scotland,F,20,Raw,FR-Jr,69,69,-125,125,-130,125,77.5,80,-82.5,80,145,-155,-155,145,350,SBD,
21,Natalie Wickett,SW,England,F,22,Raw,FR-Jr,66.9,69,127.5,132.5,-135,132.5,60,65,-67.5,65,130,137.5,145,145,342.5,SBD,
22,Alae Shahod Juratli,NM,England,F,22,Raw,FR-Jr,68.7,69,-117.5,117.5,125,125,57.5,62.5,-65,62.5,145,155,-162.5,155,342.5,SBD,
23,Téa Clark,WM,England,F,22,Raw,FR-Jr,66.3,69,-110,110,117.5,117.5,60,65,67.5,67.5,140,150,155,155,340,SBD,
24,Katie Irvine,,Wales,F,19,Raw,FR-Jr,66.8,69,107.5,115,120,120,52.5,57.5,-60,57.5,150,162.5,-170,162.5,340,SBD,
25,Holly Gordge,NM,England,F,21,Raw,FR-Jr,68.8,69,125,-130,130,130,60,65,67.5,67.5,127.5,135,140,140,337.5,SBD,
26,Molly Winter,EM,England,F,20,Raw,FR-Jr,67.2,69,115,120,-127.5,120,75,80,-82.5,80,125,132.5,-137.5,132.5,332.5,SBD,
27,Emma Barclay,YNE,England,F,21,Raw,FR-Jr,69,69,107.5,115,-122.5,115,67.5,75,-77.5,75,130,142.5,-147.5,142.5,332.5,SBD,
28,Estelle Varley,YNE,England,F,22,Raw,FR-Jr,68.8,69,120,-127.5,127.5,127.5,60,-62.5,-62.5,60,135,142.5,-150,142.5,330,SBD,
1,Racheal Raji,SM,England,F,22,Raw,FR-Jr,73.7,76,150,157.5,162.5,162.5,80,82.5,85,85,195,205,211,211,458.5,SBD,
2,Ashleigh Sutton,WM,England,F,23,Raw,FR-Jr,74.2,76,160,170,-177.5,170,80,85,-90,85,182.5,197.5,-207.5,197.5,452.5,SBD,
3,Millie Mabbutt,SW,England,F,22,Raw,FR-Jr,75.9,76,165,172.5,177.5,177.5,85,90,92.5,92.5,162.5,175,180,180,450,SBD,
4,Aimee Guthrie,,Scotland,F,21,Raw,FR-Jr,74,76,142.5,150,155,155,100,105,110,110,162.5,175,180,180,445,SBD,
5,Qian Yu Phang,GL,England,F,20,Raw,FR-Jr,75,76,155,162.5,-170,162.5,105,-110,-110,105,165,172.5,177.5,177.5,445,SBD,
6,Charleigh Lacey,SE,England,F,22,Raw,FR-Jr,75.2,76,145,155,160,160,87.5,90,92.5,92.5,170,180,-185,180,432.5,SBD,
7,Khloe Curnock,GL,England,F,21,Raw,FR-Jr,73.8,76,155,165,-172.5,165,77.5,82.5,-87.5,82.5,155,172.5,182.5,182.5,430,SBD,
8,Maryam Agoro,GL,England,F,21,Raw,FR-Jr,74,76,152.5,162.5,170,170,70,72.5,75,75,167.5,177.5,185,185,430,SBD,
9,Robyn Gorman,,Scotland,F,22,Raw,FR-Jr,76,76,152.5,-160,-162.5,152.5,70,75,77.5,77.5,175,190,200,200,430,SBD,
10,Grace du Preez,EM,England,F,22,Raw,FR-Jr,74.4,76,150,157.5,-165,157.5,80,-90,-90,80,175,182.5,190,190,427.5,SBD,
11,Libby Rubin,,Wales,F,19,Raw,FR-Jr,74.5,76,160,-170,170,170,67.5,72.5,77.5,77.5,172.5,-185,-185,172.5,420,SBD,
12,Emmanuela Onah,EM,England,F,21,Raw,FR-Jr,72.2,76,145,152.5,157.5,157.5,72.5,77.5,80,80,167.5,-177.5,-177.5,167.5,405,SBD,
13,Ella Mansfield,YNE,England,F,21,Raw,FR-Jr,72.7,76,130,140,-147.5,140,77.5,82.5,-87.5,82.5,157.5,172.5,180,180,402.5,SBD,
14,Izzy Fakkel,SE,England,F,20,Raw,FR-Jr,73.8,76,122.5,132.5,-142.5,132.5,67.5,70,75,75,170,180,192.5,192.5,400,SBD,
15,Sophia King-Mason,EM,England,F,22,Raw,FR-Jr,74.2,76,145,155,160,160,62.5,65,67.5,67.5,147.5,157.5,165,165,392.5,SBD,
16,Louise MacFeeters,,Scotland,F,22,Raw,FR-Jr,75.5,76,150,160,-167.5,160,57.5,62.5,65,65,-140,145,155,155,380,SBD,
17,Isobel Webster,SW,England,F,22,Raw,FR-Jr,75.4,76,132.5,142.5,-150,142.5,67.5,72.5,75,75,145,155,160,160,377.5,SBD,
18,Ellie MacDougall,,Scotland,F,20,Raw,FR-Jr,74.2,76,115,120,125,125,80,85,-90,85,145,152.5,160,160,370,SBD,
19,Holly Mainwaring,,Wales,F,19,Raw,FR-Jr,74.2,76,120,127.5,132.5,132.5,62.5,67.5,70,70,140,152.5,-162.5,152.5,355,SBD,
20,Eilin Alsop,,Scotland,F,21,Raw,FR-Jr,75.3,76,120,125,127.5,127.5,67.5,70,-72.5,70,150,155,-157.5,155,352.5,SBD,
DQ,Roxy Jeffries,SM,England,F,21,Raw,FR-Jr,72.1,76,137.5,147.5,-155,147.5,,,,,,,,,,SBD,
1,Grace Howse,EM,England,F,23,Raw,FR-Jr,81.3,84,142.5,152.5,157.5,157.5,100,105,110,110,162.5,172.5,177.5,177.5,445,SBD,
2,Kerry Wood,NM,England,F,22,Raw,FR-Jr,82.7,84,152.5,162.5,-172.5,162.5,85,90,92.5,92.5,170,180,-192.5,180,435,SBD,
3,Abigail Marshall,NW,England,F,22,Raw,FR-Jr,83.6,84,140,150,160,160,82.5,-87.5,87.5,87.5,170,-180,180,180,427.5,SBD,
4,Erykah Boaten,SE,England,F,22,Raw,FR-Jr,82.7,84,137.5,142.5,147.5,147.5,85,87.5,90,90,165,170,177.5,177.5,415,SBD,
5,Keira Worrall,SW,England,F,21,Raw,FR-Jr,83.8,84,137.5,142.5,-147.5,142.5,77.5,80,-82.5,80,160,-167.5,-167.5,160,382.5,SBD,
6,Lucy Gill,GL,England,F,21,Raw,FR-Jr,82.3,84,-137.5,137.5,-145,137.5,72.5,77.5,-80,77.5,140,147.5,155,155,370,SBD,
1,Sohlan Aslan,YNE,England,F,21,Raw,FR-Jr,96.3,84+,180,192.5,-195,192.5,92.5,100,102.5,102.5,185,195,197.5,197.5,492.5,SBD,
2,Caitlin Davies,,Wales,F,23,Raw,FR-Jr,135.8,84+,190,200,-205.5,200,100,105,107.5,107.5,165,175,185,185,492.5,SBD,
3,Oliwia Kozorys,GL,England,F,21,Raw,FR-Jr,112.3,84+,175,182.5,190,190,90,-95,95,95,175,185,-210,185,470,SBD,
4,Karmen Harvey,EM,England,F,22,Raw,FR-Jr,108.1,84+,162.5,175,185,185,90,95,-97.5,95,170,182.5,-190,182.5,462.5,SBD,
5,Emily Greaves,YNE,England,F,22,Raw,FR-Jr,92.9,84+,152.5,162.5,-167.5,162.5,100,105,107.5,107.5,150,160,165,165,435,SBD,
6,Wing Koon,EM,England,F,23,Raw,FR-Jr,97.3,84+,142.5,155,165,165,65,70,72.5,72.5,150,162.5,170,170,407.5,SBD,
7,Emily Shergold,SM,England,F,21,Raw,FR-Jr,87,84+,140,147.5,152.5,152.5,77.5,80,-82.5,80,145,155,165,165,397.5,SBD,
8,Jessica Stokes,EM,England,F,21,Raw,FR-Jr,102.6,84+,137.5,145,150,150,70,75,-77.5,75,155,162.5,-170,162.5,387.5,SBD,
1,Leonard Lai,GL,England,M,20,Raw,MR-Jr,52,53,125,132.5,-137.5,132.5,105,110,112.5,112.5,180,-190,-190,180,425,SBD,
1,Bailey James,GL,England,M,22,Raw,MR-Jr,57.8,59,165,172.5,175,175,105,-110,-110,105,195,-205,-205,195,475,SBD,
2,Charlie Woods,SE,England,M,22,Raw,MR-Jr,57.7,59,145,160,170,170,100,107.5,-112.5,107.5,190,-202.5,-202.5,190,467.5,SBD,
1,Benedict Grant,SW,England,M,22,Raw,MR-Jr,65.5,66,217.5,230.5,236,236,132.5,140,-145,140,245,262.5,-265,262.5,638.5,SBD,
2,Joshua Cheung,,Scotland,M,23,Raw,MR-Jr,65.8,66,192.5,200,205,205,132.5,140,146,146,240,257.5,270,270,621,SBD,
3,Renzo Binas,SW,England,M,21,Raw,MR-Jr,66,66,190,197.5,200,200,110,112.5,-115,112.5,273,284,-291,284,596.5,SBD,
4,Javin Jeetoo,SW,England,M,22,Raw,MR-Jr,65.1,66,175,190,-200,190,127.5,137.5,145,145,205,225,-230,225,560,SBD,
5,John Anderson #3,YNE,England,M,21,Raw,MR-Jr,66,66,197.5,210,-217.5,210,110,117.5,-125,117.5,205,217.5,230,230,557.5,SBD,
6,Paul Mavro,NM,England,M,19,Raw,MR-Jr,65.8,66,175,187.5,-195,187.5,110,115,-117.5,115,230,242.5,-250,242.5,545,SBD,
7,Sirjan Rana,NM,England,M,21,Raw,MR-Jr,65.8,66,162.5,172.5,180,180,105,110,115,115,220,230,240,240,535,SBD,
8,Joaquin Robles Riaza,YNE,England,M,19,Raw,MR-Jr,64,66,160,170,175,175,115,120,-122.5,120,200,210,217.5,217.5,512.5,SBD,
9,Sean Cadiz,NM,England,M,19,Raw,MR-Jr,65.6,66,155,165,172.5,172.5,90,95,100,100,215,230,240,240,512.5,SBD,
10,Aidan Lung,GL,England,M,19,Raw,MR-Jr,63,66,180,192.5,-200,192.5,90,95,100,100,200,210,-220,210,502.5,SBD,
11,Tom Dalziel,NM,England,M,20,Raw,MR-Jr,66,66,165,175,-177.5,175,110,122.5,-130,122.5,195,-205,205,205,502.5,SBD,
1,Sammy Aboagye-Kodjoe,GL,England,M,22,Raw,MR-Jr,70.6,74,225,237.5,247.5,247.5,142.5,147.5,150,150,260,275,287.5,287.5,685,SBD,
2,Ivan Dela Cruz,WM,England,M,20,Raw,MR-Jr,74,74,210,222.5,227.5,227.5,132.5,137.5,-140,137.5,277.5,292.5,305,305,670,SBD,
3,Nathan McDowell,EM,England,M,22,Raw,MR-Jr,73.8,74,237.5,250,258.5,258.5,145,150,-152.5,150,245,260,-272.5,260,668.5,SBD,
4,Tofe Ayooluwatofunmi Apampa,NW,England,M,22,Raw,MR-Jr,73.9,74,-207.5,215,225,225,147.5,155,160,160,267.5,280,-290,280,665,SBD,
5,Euan Curran,,Scotland,M,19,Raw,MR-Jr,74,74,225,240,250,250,137.5,145,147.5,147.5,235,250,262.5,262.5,660,SBD,
6,Shanu Padala,YNE,England,M,22,Raw,MR-Jr,72.6,74,-220,-225,225,225,140,150,-155,150,265,-280,280,280,655,SBD,
7,Minh Triet Iturregui Luu,GL,England,M,22,Raw,MR-Jr,73.6,74,217.5,232.5,-240,232.5,147.5,-155,157.5,157.5,245,265,-275,265,655,SBD,
8,Ryan Yarnell,EM,England,M,19,Raw,MR-Jr,73.2,74,210,220,235,235,130,137.5,142.5,142.5,255,275,-287.5,275,652.5,SBD,
9,Joe Kelsey,YNE,England,M,23,Raw,MR-Jr,74,74,210,222.5,230,230,145,150,155,155,222.5,237.5,245,245,630,SBD,
10,Samuel Kaye,GL,England,M,19,Raw,MR-Jr,70.9,74,195,207.5,-217.5,207.5,142.5,150,155,155,250,257.5,260,260,622.5,SBD,
11,Ingram Tan,,Scotland,M,20,Raw,MR-Jr,73.6,74,-215,215,-237.5,215,117.5,125,130,130,252.5,265,-270,265,610,SBD,
12,Oscar Birch,YNE,England,M,22,Raw,MR-Jr,72.9,74,207.5,-220,220,220,125,130,-135,130,230,245,-255,245,595,SBD,
13,Joel Wakeham,NW,England,M,22,Raw,MR-Jr,73.5,74,192.5,205,215,215,132.5,140,142.5,142.5,220,235,-245,235,592.5,SBD,
14,Lewis Best,SE,England,M,22,Raw,MR-Jr,72.4,74,180,190,200,200,137.5,145,-152.5,145,230,237.5,-240,237.5,582.5,SBD,
15,Tom Dawson,WM,England,M,22,Raw,MR-Jr,74,74,195,205,-215,205,145,-155,-165,145,220,230,-245,230,580,SBD,
16,George Gammage,NM,England,M,21,Raw,MR-Jr,74,74,215,225,-232.5,225,115,122.5,-125,122.5,225,232.5,-240,232.5,580,SBD,
17,Rayhaan Yusaf,GL,England,M,22,Raw,MR-Jr,73.9,74,167.5,177.5,185,185,122.5,127.5,132.5,132.5,240,257.5,-262.5,257.5,575,SBD,
18,Alan Sabu,NM,England,M,19,Raw,MR-Jr,72.3,74,190,205,-220,205,122.5,127.5,-130,127.5,220,230,235,235,567.5,SBD,
19,Nader Emam,,Wales,M,18,Raw,MR-Jr,73.3,74,195,205,215,215,117.5,125,-130,125,200,217.5,225,225,565,SBD,
20,Thomas Huitson,EM,England,M,22,Raw,MR-Jr,72.8,74,162.5,175,185,185,117.5,122.5,127.5,127.5,220,235,250,250,562.5,SBD,
21,Jake Frost,SW,England,M,22,Raw,MR-Jr,73.6,74,180,182.5,195,195,127.5,132.5,135,135,215,222.5,227.5,227.5,557.5,SBD,
22,Reece Morgan,YNE,England,M,22,Raw,MR-Jr,73.2,74,182.5,192.5,-197.5,192.5,120,125,-127.5,125,215,230,-237.5,230,547.5,SBD,
23,Caden Otter,WM,England,M,21,Raw,MR-Jr,71.5,74,185,-195,195,195,102.5,107.5,-112.5,107.5,225,240,-252.5,240,542.5,SBD,
24,William Douglas,NW,England,M,21,Raw,MR-Jr,73.6,74,185,195,200,200,117.5,125,-127.5,125,200,212.5,-220,212.5,537.5,SBD,
25,Yujan Rai,GL,England,M,21,Raw,MR-Jr,73.21,74,-180,180,182.5,182.5,127.5,135,-140,135,215,217.5,-225,217.5,535,SBD,
DQ,Addy Moraes,,Wales,M,20,Raw,MR-Jr,72.6,74,197.5,-210,210,210,115,122.5,127.5,127.5,-227.5,-227.5,-227.5,,,SBD,
1,Manson Adagu,SW,England,M,21,Raw,MR-Jr,82.8,83,257.5,275,-285,275,165,170,175,175,290,310,330,330,780,SBD,
2,Matthew Pond,NW,England,M,20,Raw,MR-Jr,82.5,83,275,-291.5,291.5,291.5,192.5,200,206,206,255,270,280,280,777.5,SBD,
3,Joey Awala,NM,England,M,22,Raw,MR-Jr,82.6,83,247.5,262.5,-267.5,262.5,162.5,167.5,-170,167.5,302.5,315,-330,315,745,SBD,
4,Peter Young #1,,Scotland,M,20,Raw,MR-Jr,82.1,83,240,260,267.5,267.5,155,162.5,167.5,167.5,270,285,-295,285,720,SBD,
5,Lucas Williams,,Wales,M,18,Raw,MR-Jr,83,83,235,250,-257.5,250,150,157.5,160,160,280,300,310,310,720,SBD,
6,Joel-Bless Wilson,WM,England,M,21,Raw,MR-Jr,82.8,83,-250,250,-265,250,147.5,-152.5,-152.5,147.5,275,287.5,-300,287.5,685,SBD,
7,Aaron Hoxhellari,SE,England,M,20,Raw,MR-Jr,82.2,83,215,235,-245,235,140,147.5,-152.5,147.5,265,285,-300,285,667.5,SBD,
8,Zach Smith #18,EM,England,M,21,Raw,MR-Jr,82.3,83,215,230,-240,230,140,147.5,150,150,280,-295,-295,280,660,SBD,
9,Lucas Silva #1,SW,England,M,22,Raw,MR-Jr,78,83,-230,237.5,245,245,140,145,147.5,147.5,250,257.5,262.5,262.5,655,SBD,
10,Jamie Ruffle,SW,England,M,21,Raw,MR-Jr,81.7,83,215,230,240,240,137.5,145,150,150,245,262.5,-280,262.5,652.5,SBD,
11,Josh Inman,NM,England,M,22,Raw,MR-Jr,82.2,83,235,250,-257.5,250,145,152.5,-155,152.5,225,242.5,250,250,652.5,SBD,
12,Emeka Obiekwe Canamero,SM,England,M,18,Raw,MR-Jr,81.7,83,210,222.5,227.5,227.5,125,130,135,135,255,270,280,280,642.5,SBD,
13,Cameron Gafaar,YNE,England,M,21,Raw,MR-Jr,82.1,83,210,220,227.5,227.5,135,145,150,150,240,255,265,265,642.5,SBD,
14,Jake Mcgarvey,SM,England,M,20,Raw,MR-Jr,80.7,83,215,227.5,237.5,237.5,120,127.5,135,135,245,260,-275,260,632.5,SBD,
15,Adam Cronin,WM,England,M,22,Raw,MR-Jr,82.7,83,205,215,220,220,130,135,-140,135,237.5,250,265,265,620,SBD,
16,Justin Jason Ricafrente,GL,England,M,22,Raw,MR-Jr,82.4,83,200,210,212.5,212.5,140,-147.5,147.5,147.5,220,240,255,255,615,SBD,
17,Isaac Butler,NW,England,M,18,Raw,MR-Jr,81.3,83,215,225,-230,225,135,-140,-140,135,220,242.5,-250,242.5,602.5,SBD,
18,Morgan Lapina-Amarelle,SE,England,M,23,Raw,MR-Jr,82.4,83,-197.5,-197.5,197.5,197.5,140,145,150,150,227.5,240,247.5,247.5,595,SBD,
G,Joe Martin #1,,Wales,M,22,Raw,MR-Jr,74.4,83,190,202.5,210,210,120,127.5,-132.5,127.5,197.5,210,220,220,557.5,SBD,
1,Nathaniel Massiah,GL,England,M,21,Raw,MR-Jr,92.7,93,270,282.5,-290,282.5,170,-175,175,175,317.5,335,-343.5,335,792.5,SBD,
2,Jonathan Lewis #1,SE,England,M,23,Raw,MR-Jr,92.3,93,230,245,252.5,252.5,157.5,165,170,170,297.5,315,332.5,332.5,755,SBD,
3,Emmanuel Olatunji,GL,England,M,21,Raw,MR-Jr,93,93,-240,-250,262.5,262.5,150,157.5,160,160,300,317.5,332.5,332.5,755,SBD,
4,Michael Ampofo-Anti,GL,England,M,22,Raw,MR-Jr,91.3,93,230,245,250,250,180,187.5,-192.5,187.5,280,297.5,305,305,742.5,SBD,
5,Hani Tabbara,WM,England,M,22,Raw,MR-Jr,92.3,93,242.5,255,265,265,135,140,145,145,282.5,297.5,307.5,307.5,717.5,SBD,
6,Emmanouil Olympios Mavriotis,SE,England,M,19,Raw,MR-Jr,92.1,93,250,262.5,-270,262.5,160,165,167.5,167.5,260,277.5,285,285,715,SBD,
7,Thomas Skillicorn,,Isle of Man,M,20,Raw,MR-Jr,90.2,93,245,255,260,260,140,147.5,-152.5,147.5,285,297.5,305,305,712.5,SBD,
8,William Ndubueze,SE,England,M,22,Raw,MR-Jr,91.4,93,235,247.5,252.5,252.5,162.5,170,-177.5,170,260,280,290,290,712.5,SBD,
9,Folahan Adelakun,,Scotland,M,22,Raw,MR-Jr,91.9,93,255,-267.5,267.5,267.5,132.5,-140,-140,132.5,285,287.5,307.5,307.5,707.5,SBD,
10,Tyler Acheampong,EM,England,M,20,Raw,MR-Jr,92.1,93,237.5,252.5,-257.5,252.5,157.5,165,170,170,265,282.5,-287.5,282.5,705,SBD,
11,Mustafa John Altintas,GL,England,M,22,Raw,MR-Jr,92,93,260,272.5,-277.5,272.5,-165,170,175,175,242.5,252.5,-257.5,252.5,700,SBD,
12,Theo Goff,SW,England,M,20,Raw,MR-Jr,92.5,93,227.5,240,247.5,247.5,152.5,160,167.5,167.5,265,285,-300,285,700,SBD,
13,Harry Eisinger,SW,England,M,20,Raw,MR-Jr,93,93,225,240,247.5,247.5,147.5,155,162.5,162.5,260,275,290,290,700,SBD,
14,Jack Hobson,YNE,England,M,22,Raw,MR-Jr,92.7,93,235,247.5,255,255,145,152.5,157.5,157.5,262.5,277.5,-287.5,277.5,690,SBD,
15,Oliver James #2,,Wales,M,21,Raw,MR-Jr,92.2,93,245,-255,260,260,142.5,150,157.5,157.5,270,-285,-285,270,687.5,SBD,
16,Ciar White,,Scotland,M,22,Raw,MR-Jr,90.4,93,-227.5,227.5,245,245,140,147.5,152.5,152.5,265,287.5,-300,287.5,685,SBD,
17,Joel Bassil,SE,England,M,20,Raw,MR-Jr,92.4,93,220,230,235,235,142.5,147.5,150,150,270,282.5,-300,282.5,667.5,SBD,
18,Tyler Cheshire,WM,England,M,19,Raw,MR-Jr,92.5,93,-240,245,-260,245,140,-145,-145,140,250,265,280,280,665,SBD,
19,Sonny Lynn,EM,England,M,19,Raw,MR-Jr,91.5,93,220,230,240,240,132.5,142.5,-150,142.5,255,270,280,280,662.5,SBD,
20,William Woods,SW,England,M,19,Raw,MR-Jr,92.8,93,-240,240,250,250,145,152.5,-157.5,152.5,240,260,-270,260,662.5,SBD,
21,Josh Martin #9,YNE,England,M,21,Raw,MR-Jr,91.4,93,222.5,235,245,245,137.5,145,-150,145,242.5,257.5,270,270,660,SBD,
22,Ben Lapthorne,SW,England,M,21,Raw,MR-Jr,87.7,93,215,230,237.5,237.5,157.5,165,170,170,220,235,250,250,657.5,SBD,
23,Aidan Mckeown,,Scotland,M,21,Raw,MR-Jr,92.6,93,222.5,235,-240,235,142.5,147.5,150,150,240,252.5,265,265,650,SBD,
24,Vinnie Murphy,SM,England,M,22,Raw,MR-Jr,91.5,93,212.5,222.5,230,230,137.5,142.5,147.5,147.5,235,250,260,260,637.5,SBD,
25,Gabriel Rowland,YNE,England,M,22,Raw,MR-Jr,92.8,93,215,-222.5,-225,215,145,152.5,-157.5,152.5,260,270,-282.5,270,637.5,SBD,
26,William Lake #1,NM,England,M,22,Raw,MR-Jr,92.4,93,225,-237.5,-237.5,225,137.5,-150,-150,137.5,260,272.5,-277.5,272.5,635,SBD,
27,Isaak Nathan,EM,England,M,21,Raw,MR-Jr,86.3,93,230,242.5,245,245,132.5,140,-142.5,140,235,-247.5,247.5,247.5,632.5,SBD,
28,David Coope,SM,England,M,21,Raw,MR-Jr,91.7,93,205,215,222.5,222.5,140,145,-150,145,245,257.5,-270,257.5,625,SBD,
29,Charlie Clark,SW,England,M,20,Raw,MR-Jr,90.2,93,190,210,225,225,125,130,135,135,230,260,-275,260,620,SBD,
1,Jamie Jonathan Foord,NM,England,M,21,Raw,MR-Jr,104.4,105,275,290,300,300,180,185,190,190,310,327.5,335,335,825,SBD,
2,Jack Hopkins,SW,England,M,20,Raw,MR-Jr,100.8,105,272.5,287.5,-295,287.5,195,202.5,-210,202.5,300,320,332.5,332.5,822.5,SBD,
3,Thomas Kenchington,EM,England,M,22,Raw,MR-Jr,104.5,105,-275,285,292.5,292.5,185,192.5,-197.5,192.5,295,315,330,330,815,SBD,
4,Sam Cook #1,SM,England,M,23,Raw,MR-Jr,102.2,105,270,287.5,295,295,172.5,180,-182.5,180,305,327.5,-340,327.5,802.5,SBD,
5,Timi Ogunfowokan,NM,England,M,22,Raw,MR-Jr,104.5,105,285,302.5,-315,302.5,165,172.5,177.5,177.5,300,322.5,-332.5,322.5,802.5,SBD,
6,Ben Cullen,NW,England,M,20,Raw,MR-Jr,104.4,105,270,287.5,-292.5,287.5,172.5,180,185,185,277.5,295,310,310,782.5,SBD,
7,Jaden Osemwegie,EM,England,M,20,Raw,MR-Jr,97.1,105,257.5,275,287.5,287.5,160,165,-167.5,165,270,287.5,300,300,752.5,SBD,
8,Andrew Wallace #1,,Scotland,M,19,Raw,MR-Jr,103.8,105,-260,-265,265,265,172.5,182.5,187.5,187.5,275,295,-310,295,747.5,SBD,
9,Daniel Collins #1,SE,England,M,22,Raw,MR-Jr,103.2,105,-255,255,275,275,152.5,157.5,160,160,257.5,277.5,292.5,292.5,727.5,SBD,
10,Josh Smith #36,,Scotland,M,20,Raw,MR-Jr,104.4,105,235,-247.5,252.5,252.5,172.5,180,185,185,260,280,290,290,727.5,SBD,
11,Peter Mendy,SM,England,M,20,Raw,MR-Jr,100,105,240,-257.5,257.5,257.5,132.5,137.5,142.5,142.5,305,325,-345.5,325,725,SBD,
12,Ben Rhodes,YNE,England,M,23,Raw,MR-Jr,102.3,105,242.5,257.5,265,265,162.5,170,-177.5,170,265,280,-295,280,715,SBD,
13,Rhys Limbert,,Scotland,M,23,Raw,MR-Jr,102.4,105,252.5,262.5,-272.5,262.5,170,175,-180,175,250,-265,275,275,712.5,SBD,
14,Thomas Ireland,EM,England,M,20,Raw,MR-Jr,104.4,105,225,-240,-245,225,170,177.5,-182.5,177.5,270,290,310,310,712.5,SBD,
15,Jeffrey Gruszka,GL,England,M,21,Raw,MR-Jr,97.1,105,235,237.5,240,240,167.5,175,-180,175,270,-272.5,295,295,710,SBD,
16,Tim Li,YNE,England,M,18,Raw,MR-Jr,103.5,105,235,-252.5,-260,235,177.5,-185,185,185,255,275,290,290,710,SBD,
17,Spencer Lynham,SE,England,M,20,Raw,MR-Jr,102.7,105,237.5,250,257.5,257.5,142.5,147.5,-150,147.5,272.5,290,300,300,705,SBD,
18,Rob Trussler,SM,England,M,22,Raw,MR-Jr,104,105,245,260,270,270,175,187.5,-192.5,187.5,230,245,-250,245,702.5,SBD,
19,Jack Jordan,WM,England,M,20,Raw,MR-Jr,103.2,105,237.5,255,265,265,160,167.5,-170,167.5,242.5,262.5,-270,262.5,695,SBD,
20,Reece Fagan,EM,England,M,18,Raw,MR-Jr,103.7,105,195,210,220,220,167.5,175,180,180,260,275,290,290,690,SBD,
21,Tom Jackson #3,EM,England,M,22,Raw,MR-Jr,103.7,105,235,252.5,265,265,155,162.5,-165,162.5,240,257.5,-272.5,257.5,685,SBD,
22,Nicco Bargioni,GL,England,M,19,Raw,MR-Jr,99.6,105,232.5,245,255,255,140,-147.5,-147.5,140,262.5,275,285,285,680,SBD,
23,Jasper Campbell-Crocker,SW,England,M,22,Raw,MR-Jr,101.7,105,215,230,240,240,142.5,147.5,150,150,250,267.5,-280,267.5,657.5,SBD,
24,Destiny Vincent,GL,England,M,22,Raw,MR-Jr,103.6,105,-215,215,-230,215,125,132.5,-140,132.5,280,300,305,305,652.5,SBD,
25,Ethan McDerment,NM,England,M,21,Raw,MR-Jr,103.8,105,210,-230,230,230,-145,150,155,155,240,257.5,-275,257.5,642.5,SBD,
1,Nonso Chinye,GL,England,M,19,Raw,MR-Jr,117.1,120,300,317.5,328,328,185,195,200,200,335,357.5,375.5,375.5,903.5,SBD,
2,Josh Pearson,NW,England,M,23,Raw,MR-Jr,118.5,120,275,295,-305,295,180,187.5,195,195,310,325,335,335,825,SBD,
3,Alasdair Wilson,,Scotland,M,23,Raw,MR-Jr,118.1,120,290,310,322.5,322.5,147.5,155,157.5,157.5,-287.5,307.5,320,320,800,SBD,
4,Harry Booth,YNE,England,M,23,Raw,MR-Jr,118.4,120,250,265,272.5,272.5,160,167.5,-170,167.5,285,302.5,312.5,312.5,752.5,SBD,
5,Alex Stokes,WM,England,M,22,Raw,MR-Jr,117.9,120,232.5,250,262.5,262.5,140,147.5,152.5,152.5,270,287.5,300,300,715,SBD,
6,Max Heyburn,,Wales,M,23,Raw,MR-Jr,118.1,120,250,260,265,265,-150,150,-155,150,265,285,292.5,292.5,707.5,SBD,
7,Theo Davies,NM,England,M,21,Raw,MR-Jr,116.4,120,240,252.5,-260,252.5,132.5,140,147.5,147.5,272.5,292.5,305,305,705,SBD,
G,Ford McDougall,NM,England,M,20,Raw,MR-Jr,107,120,215,-225,235,235,120,127.5,135,135,265,285,-302.5,285,655,SBD,
1,Josh Berriman,YNE,England,M,20,Raw,MR-Jr,133.5,120+,-315,335,350,350,170,182.5,190,190,300,330,350,350,890,SBD,
2,Joshua Ngoka,GL,England,M,19,Raw,MR-Jr,141,120+,310,325,335,335,185,192.5,-197.5,192.5,315,340,-365,340,867.5,SBD,
3,Tomos Atkinson,,Wales,M,22,Raw,MR-Jr,153.4,120+,262.5,280,295,295,155,162.5,167.5,167.5,285,302.5,310,310,772.5,SBD,
4,Nathan Britton,YNE,England,M,21,Raw,MR-Jr,168,120+,-290,295,310,310,200,210,-217.5,210,230,242.5,252.5,252.5,772.5,SBD,
5,Louis Parry,SW,England,M,19,Raw,MR-Jr,129.4,120+,-260,265,272.5,272.5,162.5,170,-177.5,170,265,275,287.5,287.5,730,SBD,
6,Archie Cleverley,EM,England,M,22,Raw,MR-Jr,181.8,120+,250,265,277.5,277.5,160,167.5,175,175,247.5,267.5,277.5,277.5,730,SBD,
7,Bilal Malik,YNE,England,M,21,Raw,MR-Jr,156.8,120+,-225,-225,240,240,140,147.5,152.5,152.5,285,305,-317.5,305,697.5,SBD,
1,Tiffany Pilnikova,NW,England,F,,Raw,FR-Sj,36.9,43,70,-75,-75,70,40,45,-47.5,45,90,95,97.5,97.5,212.5,SBD,
1,Zoha Zaheer,,Scotland,F,,Raw,FR-Sj,47,47,65,70,75,75,32.5,35,37.5,37.5,105,112.5,117.5,117.5,230,SBD,
1,Sylvie Thomas,YNE,England,F,,Raw,FR-Sj,49.5,52,90,-95,95,95,61,65.5,67.5,67.5,117.5,125,130,130,292.5,SBD,
2,Violet Clarke Waller,YNE,England,F,,Raw,FR-Sj,52,52,80,-87.5,90,90,47.5,50,52.5,52.5,110,-112.5,-112.5,110,252.5,SBD,
3,Teagan Lindsay,,Isle of Man,F,,Raw,FR-Sj,50.1,52,80,-85,85,85,40,42.5,-45,42.5,100,107.5,-112.5,107.5,235,SBD,
1,Gaby Watman,SE,England,F,,Raw,FR-Sj,55.8,57,130,-138,-138,130,65,-70,70,70,135,142.5,147.5,147.5,347.5,SBD,
2,Hannah Karpal,GL,England,F,,Raw,FR-Sj,56.1,57,100,-107.5,107.5,107.5,55,60,62.5,62.5,142.5,153,-160.5,153,323,SBD,
3,Hannah Wardell,,Scotland,F,,Raw,FR-Sj,56.3,57,82.5,92.5,95,95,47.5,52.5,55,55,105,115,-120,115,265,SBD,
4,Lhamo Weston,WM,England,F,,Raw,FR-Sj,55.8,57,95,100,-102.5,100,50,52.5,-55,52.5,100,105,-107.5,105,257.5,SBD,
1,Isobel David,EM,England,F,,Raw,FR-Sj,62.9,63,130,137.5,-142.5,137.5,85,-90.5,-90.5,85,147.5,155,160,160,382.5,SBD,
2,Philippa Moorcroft,NM,England,F,,Raw,FR-Sj,61.5,63,107.5,112.5,-117.5,112.5,57.5,60,62.5,62.5,115,125,130,130,305,SBD,
3,Olivia Neokli,NW,England,F,,Raw,FR-Sj,61.4,63,97.5,102.5,107.5,107.5,55,57.5,60,60,110,117.5,125,125,292.5,SBD,
4,Kirstie Jack,,Scotland,F,,Raw,FR-Sj,61.4,63,97.5,105,107.5,107.5,55,-60,-60,55,117.5,125,-132.5,125,287.5,SBD,
5,Clara Thomas,GL,England,F,,Raw,FR-Sj,57.5,63,90,100,105,105,40,45,50,50,95,105,110,110,265,SBD,
6,Diana Sargsyan,SE,England,F,,Raw,FR-Sj,58,63,60,67.5,-72.5,67.5,37.5,42.5,45,45,92.5,100,105,105,217.5,SBD,
1,Jenny Lin,EM,England,F,,Raw,FR-Sj,68.3,69,107.5,115,122.5,122.5,55,60,-62.5,60,135,145,-155,145,327.5,SBD,
2,Mya McColgan,,Scotland,F,,Raw,FR-Sj,66.9,69,95,100,-105,100,45,50,52.5,52.5,107.5,112.5,117.5,117.5,270,SBD,
1,Harriet Cull,EM,England,F,,Raw,FR-Sj,72.4,76,135,145,148,148,67.5,72.5,75,75,142.5,-147.5,147.5,147.5,370.5,SBD,
2,Sophie Green,SE,England,F,,Raw,FR-Sj,75.8,76,97.5,107.5,112.5,112.5,52.5,-57.5,57.5,57.5,110,122.5,135,135,305,SBD,
1,Mateenah Alli,SM,England,F,,Raw,FR-Sj,83.4,84,145,147.5,150,150,52.5,57.5,60,60,132.5,137.5,142.5,142.5,352.5,SBD,
2,Katie Tatum,SE,England,F,,Raw,FR-Sj,77.9,84,110,117.5,125,125,70,75,-80,75,125,132.5,137.5,137.5,337.5,SBD,
3,Eniola Osikoya,GL,England,F,,Raw,FR-Sj,82.6,84,-107.5,-115,115,115,52.5,57.5,60,60,110,127.5,145,145,320,SBD,
1,Ami Anderson,SW,England,F,,Raw,FR-Sj,89.8,84+,100,110,-115,110,50,55,60,60,130,137.5,140,140,310,SBD,
1,Harrison Parkhill,NW,England,M,,Raw,MR-Sj,52.2,53,-105,-110,110,110,52.5,60,70,70,125,135,-145,135,315,SBD,
2,Sudais Arif,GL,England,M,,Raw,MR-Sj,53,53,82.5,87.5,92.5,92.5,75,-80,-80,75,125,-135,-135,125,292.5,SBD,
1,Alfie Bonsell,NM,England,M,,Raw,MR-Sj,58.6,59,175,185,192.5,192.5,100,107.5,112.5,112.5,185,-197.5,197.5,197.5,502.5,SBD,
2,Josh Loke,NM,England,M,,Raw,MR-Sj,58.3,59,162.5,167.5,-170,167.5,-75,75,-77.5,75,182.5,192.5,197.5,197.5,440,SBD,
3,Sagnik Chatterjee,GL,England,M,,Raw,MR-Sj,59,59,135,142.5,-147.5,142.5,85,90,92.5,92.5,180,192.5,-202.5,192.5,427.5,SBD,
4,Sawyer Preston,EM,England,M,,Raw,MR-Sj,58.8,59,140,155,-165,155,-92.5,-97.5,97.5,97.5,-155,-155,160,160,412.5,SBD,
5,Jake Scott,SE,England,M,,Raw,MR-Sj,58.5,59,-127.5,127.5,135,135,75,80,-85,80,170,-180,185,185,400,SBD,
6,Jack Collins,NW,England,M,,Raw,MR-Sj,57.9,59,-115,-120,120,120,60,70,-75,70,170,180,185,185,375,SBD,
7,Aaryan Shah,GL,England,M,,Raw,MR-Sj,58.5,59,125,-127.5,-127.5,125,70,77.5,82.5,82.5,-150,155,-160,155,362.5,SBD,
DQ,Dakota Bessent,SW,England,M,,Raw,MR-Sj,58.7,59,-140,-155,-155,,90,97.5,100,100,177.5,192.5,-200,192.5,,SBD,
1,Dorje Weston,WM,England,M,,Raw,MR-Sj,65.3,66,195,208,213,213,140,145,-148.5,145,200,212.5,222.5,222.5,580.5,SBD,
2,Edward Butcher,YNE,England,M,,Raw,MR-Sj,65,66,170,180,-190,180,97.5,102.5,105,105,210,225,230,230,515,SBD,
3,James Hardy,SM,England,M,,Raw,MR-Sj,64.5,66,157.5,165,170,170,105,115,-120,115,210,222.5,227.5,227.5,512.5,SBD,
4,Logan Nash,,Wales,M,,Raw,MR-Sj,64.8,66,180,-187.5,-187.5,180,107.5,-112.5,-112.5,107.5,185,-197.5,-197.5,185,472.5,SBD,
5,Nojus Judickas,SE,England,M,,Raw,MR-Sj,65.7,66,142.5,157.5,-165,157.5,77.5,85,90,90,175,185,200,200,447.5,SBD,
6,Archie Marshall,SE,England,M,,Raw,MR-Sj,64,66,130,140,-145,140,90,95,100,100,170,180,190,190,430,SBD,
7,Anthony Wong,SE,England,M,,Raw,MR-Sj,64.1,66,140,-150,150,150,92.5,-97.5,-97.5,92.5,165,175,185,185,427.5,SBD,
8,Lewis Pirie,WM,England,M,,Raw,MR-Sj,65.9,66,140,150,-155,150,80,-85,-85,80,175,190,-200,190,420,SBD,
9,Fred Rush,SE,England,M,,Raw,MR-Sj,64.1,66,135,140,-145,140,90,-100,100,100,165,-175,175,175,415,SBD,
10,Jolyon Marsh,EM,England,M,,Raw,MR-Sj,64.8,66,-140,-140,140,140,77.5,82.5,-85,82.5,185,192.5,-197.5,192.5,415,SBD,
11,Tin Yan Lee,WM,England,M,,Raw,MR-Sj,65.4,66,125,132.5,140,140,90,-95,-95,90,160,170,180,180,410,SBD,
12,Harvey Chester,SW,England,M,,Raw,MR-Sj,63,66,115,125,-130,125,75,80,-85,80,165,175,182.5,182.5,387.5,SBD,
13,Alfie Wormald,SM,England,M,,Raw,MR-Sj,65.9,66,115,127.5,-137.5,127.5,100,110,-115,110,150,-165,-175,150,387.5,SBD,
14,Syed Shayaan Shoeb,SW,England,M,,Raw,MR-Sj,66,66,117.5,-125,130,130,77.5,85,-90,85,147.5,155,162.5,162.5,377.5,SBD,
15,Blake Harding,SE,England,M,,Raw,MR-Sj,65,66,110,120,127.5,127.5,67.5,75,-77.5,75,142.5,155,167.5,167.5,370,SBD,
1,Yaw Parbey,NW,England,M,,Raw,MR-Sj,71.5,74,217.5,225,227.5,227.5,117.5,125,-127.5,125,-277.5,277.5,-300,277.5,630,SBD,
2,Kacper Walesa,NW,England,M,,Raw,MR-Sj,73.7,74,217.5,-230.5,-230.5,217.5,107.5,115,120,120,227.5,245,-257.5,245,582.5,SBD,
3,Daniel Tamlyn,SM,England,M,,Raw,MR-Sj,73.5,74,190,200,207.5,207.5,112.5,117.5,-122.5,117.5,225,237.5,-257.5,237.5,562.5,SBD,
4,Jeremy Lin,NM,England,M,,Raw,MR-Sj,72.7,74,192.5,205,212.5,212.5,115,-122.5,-122.5,115,210,225,-232.5,225,552.5,SBD,
5,Vincent Tiley,SE,England,M,,Raw,MR-Sj,72.5,74,185,197.5,207.5,207.5,102.5,112.5,-115,112.5,210,220,227.5,227.5,547.5,SBD,
6,Sebastian Sincovita,SW,England,M,,Raw,MR-Sj,73.1,74,195,202.5,207.5,207.5,105,110,115,115,200,217.5,225,225,547.5,SBD,
7,Harry Vint,SM,England,M,,Raw,MR-Sj,70.5,74,170,-185,185,185,125,130,-135,130,210,220,225,225,540,SBD,
8,Jan Aquino,SE,England,M,,Raw,MR-Sj,73.5,74,155,162.5,170,170,105,110,112.5,112.5,215,230,-240,230,512.5,SBD,
9,Kian Alimo,WM,England,M,,Raw,MR-Sj,72.4,74,180,-187.5,-187.5,180,-110,-110,110,110,190,-210,220,220,510,SBD,
10,Kamron Mir-Gajadhar,GL,England,M,,Raw,MR-Sj,74,74,167.5,-175,175,175,102.5,112.5,-115,112.5,205,215,222.5,222.5,510,SBD,
11,Morgan Caulkin,SE,England,M,,Raw,MR-Sj,71.8,74,170,180,185,185,-115,115,120,120,175,190,200,200,505,SBD,
12,Sun Baram,YNE,England,M,,Raw,MR-Sj,70.6,74,-165,165,-177.5,165,100,107.5,-112.5,107.5,205,217.5,-227.5,217.5,490,SBD,
13,Finley Ivory,SM,England,M,,Raw,MR-Sj,73.3,74,150,165,172.5,172.5,92.5,100,102.5,102.5,180,195,205,205,480,SBD,
14,Ben Kaye,WM,England,M,,Raw,MR-Sj,70.6,74,160,170,175,175,95,102.5,-107.5,102.5,180,190,-200,190,467.5,SBD,
15,Louis Morton,YNE,England,M,,Raw,MR-Sj,70.8,74,162.5,175,-180,175,82.5,87.5,-90,87.5,175,190,205,205,467.5,SBD,
16,Thomas Jago,,Wales,M,,Raw,MR-Sj,71.2,74,160,170,175,175,-85,85,92.5,92.5,187.5,200,-210,200,467.5,SBD,
17,William Millichamp,WM,England,M,,Raw,MR-Sj,71.5,74,-175,-175,175,175,95,-100,-100,95,170,190,-205,190,460,SBD,
18,Edmond Hedley,WM,England,M,,Raw,MR-Sj,70.6,74,145,152.5,-160,152.5,-92.5,-97.5,97.5,97.5,182.5,197.5,205,205,455,SBD,
19,Brodie Vaughan,SE,England,M,,Raw,MR-Sj,73.5,74,150,160,170,170,-100,105,-110,105,180,-190,-190,180,455,SBD,
20,Dash Granite,GL,England,M,,Raw,MR-Sj,71.2,74,142.5,150,155,155,120,-125,-125,120,155,165,175,175,450,SBD,
21,Hassan Behram,GL,England,M,,Raw,MR-Sj,68.4,74,-157.5,-157.5,157.5,157.5,75,82.5,-90,82.5,185,195,202.5,202.5,442.5,SBD,
22,Liam Aldcroft,EM,England,M,,Raw,MR-Sj,69.7,74,120,130,137.5,137.5,90,100,107.5,107.5,170,190,-200,190,435,SBD,
23,Adnan Aneez,SM,England,M,,Raw,MR-Sj,68.5,74,140,150,-157.5,150,97.5,-102.5,-102.5,97.5,-175,175,-190,175,422.5,SBD,
24,Doug Harfield,WM,England,M,,Raw,MR-Sj,71.7,74,132.5,135,-140,135,102.5,-110,-110,102.5,175,185,-200,185,422.5,SBD,
25,Ollie Newbury,NW,England,M,,Raw,MR-Sj,71.9,74,122.5,135,145,145,80,85,90,90,170,182.5,187.5,187.5,422.5,SBD,
26,Oscar Button-Kalanyosi,EM,England,M,,Raw,MR-Sj,71.9,74,145,147.5,-162.5,147.5,-82.5,85,87.5,87.5,160,170,-180,170,405,SBD,
27,Yaroslav Bobko,SE,England,M,,Raw,MR-Sj,73.3,74,-135,135,-137.5,135,90,95,100,100,-167.5,-167.5,167.5,167.5,402.5,SBD,
DQ,Austin-James Betteridge,WM,England,M,,Raw,MR-Sj,73.8,74,-165,-165,-165,,87.5,95,-97.5,95,177.5,190,200,200,,SBD,
1,Dominic Grey,SE,England,M,,Raw,MR-Sj,79.9,83,232.5,243,-250.5,243,-135,135,140,140,262.5,272.5,-290,272.5,655.5,SBD,
2,Ayonla Oyinloye,SW,England,M,,Raw,MR-Sj,80.7,83,-215,215,235,235,110,117.5,125,125,220,-240,252.5,252.5,612.5,SBD,
3,Fergus Falconer,,Scotland,M,,Raw,MR-Sj,80.8,83,200,210,220,220,135,140,-145,140,212.5,225,237.5,237.5,597.5,SBD,
4,Guy Rosen,GL,England,M,,Raw,MR-Sj,80,83,-215,215,230,230,112.5,117.5,122.5,122.5,240,-255,-260,240,592.5,SBD,
5,Will Gimenez-Codd,NM,England,M,,Raw,MR-Sj,77.7,83,187.5,-202.5,207.5,207.5,112.5,120,125,125,225,245,255,255,587.5,SBD,
6,Oskar Wencel,WM,England,M,,Raw,MR-Sj,82.2,83,215,222.5,-227.5,222.5,120,-125,125,125,225,232.5,-240,232.5,580,SBD,
7,Lewis Corrie,NW,England,M,,Raw,MR-Sj,82.2,83,192.5,202.5,-210,202.5,117.5,125,127.5,127.5,232.5,250,-257.5,250,580,SBD,
8,Jaiden Woolgrove,EM,England,M,,Raw,MR-Sj,82.6,83,197.5,202.5,,202.5,137.5,142.5,147.5,147.5,205,215,220,220,570,SBD,
9,Jake Tucker #1,SE,England,M,,Raw,MR-Sj,82.1,83,195,205,210,210,125,132.5,-135,132.5,215,225,-235,225,567.5,SBD,
10,Anthony McQuade,SE,England,M,,Raw,MR-Sj,82.9,83,-192.5,192.5,-205,192.5,135,142.5,147.5,147.5,210,225,-235,225,565,SBD,
11,Owen Visser,SE,England,M,,Raw,MR-Sj,82.9,83,177.5,190,200,200,125,132.5,135,135,-222.5,-225,225,225,560,SBD,
12,Alex Brownett,SE,England,M,,Raw,MR-Sj,78.5,83,-175,175,182.5,182.5,115,122.5,127.5,127.5,220,237.5,247.5,247.5,557.5,SBD,
13,Jack Mister,SW,England,M,,Raw,MR-Sj,80.1,83,170,180,-190,180,120,-130,-130,120,-245,250,,250,550,SBD,
14,Oliver Daccus,YNE,England,M,,Raw,MR-Sj,81.3,83,-172.5,-180,185,185,102.5,107.5,-110,107.5,-225,240,257.5,257.5,550,SBD,
15,Harvey Western,NW,England,M,,Raw,MR-Sj,82.5,83,-175,-185,190,190,117.5,-120,-120,117.5,210,225,235,235,542.5,SBD,
16,Henry Bell,EM,England,M,,Raw,MR-Sj,81.5,83,185,200,207.5,207.5,-112.5,-117.5,117.5,117.5,195,210,215,215,540,SBD,
17,Will Fleet,EM,England,M,,Raw,MR-Sj,79.2,83,195,207.5,-215,207.5,100,110,115,115,195,207.5,212.5,212.5,535,SBD,
18,Daniel Bellamy,NM,England,M,,Raw,MR-Sj,82.8,83,190,200,-207.5,200,115,122.5,-125,122.5,195,205,212.5,212.5,535,SBD,
19,Jake Palmer,EM,England,M,,Raw,MR-Sj,83,83,185,192.5,-200,192.5,117.5,125,-130,125,190,202.5,215,215,532.5,SBD,
20,Ashley Lake,SW,England,M,,Raw,MR-Sj,81.8,83,170,180,187.5,187.5,120,127.5,-132.5,127.5,192.5,210,-217.5,210,525,SBD,
21,Andre Lombaard,EM,England,M,,Raw,MR-Sj,82,83,185,197.5,-207.5,197.5,97.5,102.5,107.5,107.5,200,215,-220,215,520,SBD,
22,Harry Marples,SE,England,M,,Raw,MR-Sj,79.9,83,172.5,182.5,192.5,192.5,112.5,117.5,122.5,122.5,177.5,190,200,200,515,SBD,
23,Alfie Webster,YNE,England,M,,Raw,MR-Sj,82.8,83,170,182.5,-192.5,182.5,105,-112.5,112.5,112.5,220,-232.5,-240,220,515,SBD,
24,Daniel du Plessis,,Wales,M,,Raw,MR-Sj,81.8,83,180,190,-195,190,100,110,115,115,-195,205,-210,205,510,SBD,
25,Andrew Matthews,SW,England,M,,Raw,MR-Sj,82,83,177.5,-187.5,187.5,187.5,102.5,107.5,-110,107.5,190,202.5,215,215,510,SBD,
26,Sriram Satheeshkumar,SM,England,M,,Raw,MR-Sj,81.2,83,157.5,170,180,180,100,107.5,110,110,-205,205,-225,205,495,SBD,
27,Patrik Tuzko,GL,England,M,,Raw,MR-Sj,81.3,83,185,192.5,-200,192.5,90,-95,-95,90,190,200,210,210,492.5,SBD,
28,Edward Hadnett,SM,England,M,,Raw,MR-Sj,80.8,83,175,-185,-190,175,95,100,-105,100,195,210,215,215,490,SBD,
29,Oscar Browning,EM,England,M,,Raw,MR-Sj,79.7,83,180,-195,200,200,95,102.5,-107.5,102.5,170,185,-195,185,487.5,SBD,
30,Rayyan Mirza,GL,England,M,,Raw,MR-Sj,80.4,83,160,167.5,-175,167.5,110,115,-120,115,180,187.5,195,195,477.5,SBD,
31,Naby Bangoura,YNE,England,M,,Raw,MR-Sj,79.3,83,150,157.5,162.5,162.5,-80,85,90,90,207.5,-220,220,220,472.5,SBD,
32,Luca Sutton,YNE,England,M,,Raw,MR-Sj,82.1,83,-155,-155,155,155,90,100,-105,100,180,195,210,210,465,SBD,
33,Christian Iacobus,YNE,England,M,,Raw,MR-Sj,81.9,83,155,167.5,-175,167.5,82.5,87.5,90,90,185,197.5,205,205,462.5,SBD,
34,Alexander Groves,WM,England,M,,Raw,MR-Sj,80.5,83,150,152.5,-157.5,152.5,95,100,-105,100,180,190,200,200,452.5,SBD,
35,Hayden Jones #3,WM,England,M,,Raw,MR-Sj,81.9,83,157.5,167.5,175,175,90,-92.5,-100,90,175,-177.5,187.5,187.5,452.5,SBD,
36,Ashton Ingram,SW,England,M,,Raw,MR-Sj,82.9,83,215,-225,-225,215,127.5,-135,140,140,75,,,75,430,SBD,
DQ,Obioma Uchegbu,YNE,England,M,,Raw,MR-Sj,81.8,83,-235,-235,-235,,-115,-115,115,115,210,-212.5,212.5,212.5,,SBD,
DQ,Dylan Jack,SM,England,M,,Raw,MR-Sj,81.9,83,-172.5,-172.5,-172.5,,90,95,100,100,195,205,212.5,212.5,,SBD,
G,William Kendall,YNE,England,M,,Raw,MR-Sj,81.3,83,182.5,195,-210,195,110,115,117.5,117.5,220,232.5,237.5,237.5,550,SBD,
1,Liam Mcdermott,YNE,England,M,,Raw,MR-Sj,90.3,93,247.5,262.5,-265,262.5,140,145,147.5,147.5,237.5,250,255,255,665,SBD,
2,Mackenzie Parker-Pierce,,Wales,M,,Raw,MR-Sj,90.6,93,217.5,232.5,240,240,132.5,137.5,142.5,142.5,240,255,260,260,642.5,SBD,
3,Oliver Philpot,EM,England,M,,Raw,MR-Sj,92.4,93,220,230,235,235,140,145,-150,145,230,242.5,255,255,635,SBD,
4,Alby Holland,SM,England,M,,Raw,MR-Sj,91.7,93,225,-232.5,-232.5,225,-127.5,137.5,-145,137.5,242.5,255,-265,255,617.5,SBD,
5,Dimitris Dimopoulos,NW,England,M,,Raw,MR-Sj,91.6,93,205,215,-225,215,120,127.5,-132.5,127.5,225,250,262.5,262.5,605,SBD,
6,Charlie Ehlen,WM,England,M,,Raw,MR-Sj,90.4,93,210,225,230,230,120,130,135,135,220,235,-255,235,600,SBD,
7,Michael Oghenekevwe,GL,England,M,,Raw,MR-Sj,89.1,93,185,200,-210,200,130,137.5,-140,137.5,207.5,225,240,240,577.5,SBD,
8,Sam Spencer,GL,England,M,,Raw,MR-Sj,89.8,93,207.5,217.5,227.5,227.5,100,105,-107.5,105,215,227.5,-237.5,227.5,560,SBD,
9,Oscar Spiers,SM,England,M,,Raw,MR-Sj,92.4,93,185,-202.5,202.5,202.5,105,112.5,-120,112.5,220,242.5,-257.5,242.5,557.5,SBD,
10,Julian Popov,SE,England,M,,Raw,MR-Sj,86.3,93,185,197.5,205,205,117.5,122.5,127.5,127.5,190,207.5,217.5,217.5,550,SBD,
11,Elliott Flannery,NW,England,M,,Raw,MR-Sj,86.4,93,-217.5,-225,225,225,-112.5,120,-125,120,190,-205,205,205,550,SBD,
12,Ashton Smith #1,SE,England,M,,Raw,MR-Sj,88.6,93,175,185,-192.5,185,107.5,115,-117.5,115,220,235,-250,235,535,SBD,
13,Dominik Nawrocki,EM,England,M,,Raw,MR-Sj,90.1,93,-182.5,182.5,192.5,192.5,105,112.5,-120,112.5,207.5,-220,225,225,530,SBD,
14,Henry Lister,SW,England,M,,Raw,MR-Sj,85.3,93,180,190,200,200,110,115,-117.5,115,210,-220,-220,210,525,SBD,
15,Jack Lynch #4,YNE,England,M,,Raw,MR-Sj,90.6,93,175,185,200,200,85,95,-100,95,195,212.5,225,225,520,SBD,
16,Josh Dawson,YNE,England,M,,Raw,MR-Sj,86.7,93,185,-195,195,195,100,-107.5,107.5,107.5,200,215,-225,215,517.5,SBD,
17,Jack Roger,SE,England,M,,Raw,MR-Sj,86,93,165,177.5,187.5,187.5,97.5,105,107.5,107.5,200,210,220,220,515,SBD,
18,Ben Crellin,GL,England,M,,Raw,MR-Sj,87.7,93,160,167.5,172.5,172.5,117.5,122.5,-127.5,122.5,197.5,212.5,220,220,515,SBD,
19,Josh Parker #1,,Scotland,M,,Raw,MR-Sj,88,93,175,182.5,-195,182.5,107.5,117.5,-125,117.5,190,205,215,215,515,SBD,
20,Bailey Parkinson,NW,England,M,,Raw,MR-Sj,89.4,93,165,167.5,182.5,182.5,112.5,-120,-120,112.5,220,-230,-240,220,515,SBD,
21,Oliver Neill,,Wales,M,,Raw,MR-Sj,86.7,93,172.5,182.5,-187.5,182.5,120,-125,125,125,185,-200,200,200,507.5,SBD,
22,Gus Coleman,SE,England,M,,Raw,MR-Sj,85.3,93,175,185,-195,185,90,95,100,100,205,220,-232.5,220,505,SBD,
23,Declan Brennan,NW,England,M,,Raw,MR-Sj,90.6,93,150,165,175,175,80,90,92.5,92.5,205,220,-232.5,220,487.5,SBD,
24,Luke Fernley,SE,England,M,,Raw,MR-Sj,88.6,93,160,-170,170,170,100,105,-107.5,105,175,185,-192.5,185,460,SBD,
DQ,Aidan Minett,SW,England,M,,Raw,MR-Sj,91,93,-150,-160,-160,,115,-117.5,-117.5,115,190,-200,200,200,,SBD,
G,Cameron Welsby,NW,England,M,,Raw,MR-Sj,84.5,93,175,185,-195,185,107.5,-115,-117.5,107.5,215,-230,235,235,527.5,SBD,
1,Theo Bennett,,Scotland,M,,Raw,MR-Sj,96.6,105,210,230,-245,230,165,-175,175,175,252.5,265,272.5,272.5,677.5,SBD,
2,Jenson Daubrah-Scott,EM,England,M,,Raw,MR-Sj,104.7,105,237.5,247.5,-257.5,247.5,110,117.5,122.5,122.5,270,287.5,300,300,670,SBD,
3,Peter Scofield,EM,England,M,,Raw,MR-Sj,94.6,105,225,240,-245,240,110,117.5,122.5,122.5,262.5,275,285,285,647.5,SBD,
4,Michal Marcinko,,N.Ireland,M,,Raw,MR-Sj,104.2,105,215,235,255,255,127.5,135,-140,135,220,245,-265,245,635,SBD,
5,Kristo Manellari,SW,England,M,,Raw,MR-Sj,103.2,105,-215,-215,215,215,125,132.5,-137.5,132.5,220,237.5,250,250,597.5,SBD,
6,Christian Palumbo,SM,England,M,,Raw,MR-Sj,102.6,105,-205,-205,205,205,-105,105,-110,105,275,-285,-290,275,585,SBD,
7,Conor McDonnell,,Wales,M,,Raw,MR-Sj,97.3,105,177.5,190,200,200,125,132.5,-140,132.5,205,220,230,230,562.5,SBD,
8,Jadon Yu,EM,England,M,,Raw,MR-Sj,101.5,105,185,-200,205,205,110,117.5,127.5,127.5,195,215,-230,215,547.5,SBD,
9,Art Burnett,SE,England,M,,Raw,MR-Sj,103.4,105,180,195,202.5,202.5,110,120,-127.5,120,210,222.5,-235,222.5,545,SBD,
10,Samy Elkholy,SW,England,M,,Raw,MR-Sj,98,105,197.5,205,210,210,85,92.5,97.5,97.5,220,235,-250,235,542.5,SBD,
11,Henry Rouse,SE,England,M,,Raw,MR-Sj,104.8,105,190,197.5,205,205,95,102.5,105,105,190,200,212.5,212.5,522.5,SBD,
12,Jonathan Nash,SE,England,M,,Raw,MR-Sj,104.3,105,160,170,175,175,-95,95,100,100,205,215,-225,215,490,SBD,
1,Finn O'Farrell,SW,England,M,,Raw,MR-Sj,114.6,120,265,277.5,290,290,150,160,170,170,250,265,275,275,735,SBD,
2,Leo Sulaiman,YNE,England,M,,Raw,MR-Sj,105.1,120,-212.5,220,230,230,130,135,140,140,230,242.5,255,255,625,SBD,
3,Jack Frisby,EM,England,M,,Raw,MR-Sj,107.8,120,205,217.5,227.5,227.5,135,142.5,-150,142.5,225,240,252.5,252.5,622.5,SBD,
4,Will Anders,EM,England,M,,Raw,MR-Sj,119,120,195,205,210,210,122.5,130,-135,130,210,227.5,240,240,580,SBD,
5,James Docherty-Hutchings,WM,England,M,,Raw,MR-Sj,118.3,120,145,160,175,175,122.5,132.5,-140,132.5,200,220,230,230,537.5,SBD,
1,Tom Whinnie,YNE,England,M,,Raw,MR-Sj,122.6,120+,185,-200,-207.5,185,125,135,142.5,142.5,200,225,230,230,557.5,SBD,
